<?xml version="1.0" encoding="UTF-8"?>
<svg width="181px" height="46px" viewBox="0 0 181 46" version="1.1" xmlns="http://www.w3.org/2000/svg" xmlns:xlink="http://www.w3.org/1999/xlink">
    <!-- Generator: Sketch 43.2 (39069) - http://www.bohemiancoding.com/sketch -->
    <title>logo2-white</title>
    <desc>Created with Sketch.</desc>
    <defs></defs>
    <g id="Page-1" stroke="none" stroke-width="1" fill="none" fill-rule="evenodd">
        <g id="logo2-white" fill-rule="nonzero" fill="#FFFFFF">
            <g id="text" transform="translate(50.000000, 10.891300)">
                <g id="Group">
                    <path d="M2.0467,4.5181 C2.0467,4.8421 2.0827,4.8421 2.4427,4.8421 L3.2587,4.8421 C3.7507,4.8421 4.1347,4.8191 4.2777,4.7701 C4.4097,4.7211 4.5057,4.6611 4.5777,4.3501 L4.6857,3.8721 C4.7457,3.7971 4.9497,3.7971 4.9977,3.8721 C4.9977,4.1571 4.9497,4.6371 4.9497,5.0821 C4.9497,5.5141 4.9977,5.9691 4.9977,6.2451 C4.9497,6.3171 4.7697,6.3171 4.6857,6.2451 L4.5667,5.7781 C4.5057,5.5611 4.4097,5.3951 4.1827,5.3231 C4.0137,5.2741 3.7137,5.2621 3.2587,5.2621 L2.4427,5.2621 C2.0827,5.2621 2.0467,5.2741 2.0467,5.5861 L2.0467,7.2521 C2.0467,8.5121 2.0697,8.6921 2.7787,8.7521 L3.1867,8.7891 C3.2587,8.8381 3.2337,9.0531 3.1627,9.0901 C2.4547,9.0651 2.0467,9.0531 1.5677,9.0531 C1.0387,9.0531 0.6307,9.0651 0.0677,9.0901 C-0.0043,9.0531 -0.0283,8.8621 0.0437,8.7891 L0.3437,8.7521 C1.0387,8.6681 1.0637,8.5121 1.0637,7.2521 L1.0637,2.9341 C1.0637,1.6741 1.0387,1.5061 0.3437,1.4241 L0.1507,1.3991 C0.0787,1.3521 0.1037,1.1351 0.1757,1.0981 C0.6797,1.1231 1.0867,1.1351 1.5677,1.1351 L3.7747,1.1351 C4.5417,1.1351 5.2377,1.1351 5.3937,1.0981 C5.3937,1.6531 5.4047,2.2251 5.4297,2.6821 C5.3937,2.7541 5.2257,2.7911 5.1417,2.7171 C5.0457,2.1781 4.9017,1.7351 4.3017,1.5791 C4.0377,1.5061 3.6427,1.5061 3.1387,1.5061 L2.4057,1.5061 C2.0467,1.5061 2.0467,1.5321 2.0467,1.9871 L2.0467,4.5181 Z" id="Fill-25"></path>
                    <path d="M8.7146,2.9595 C8.7146,1.6885 8.6906,1.4825 7.9836,1.4245 L7.6826,1.3985 C7.6106,1.3525 7.6346,1.1355 7.7066,1.0985 C8.3066,1.1235 8.7146,1.1355 9.2186,1.1355 C9.6976,1.1355 10.1066,1.1235 10.7056,1.0985 C10.7776,1.1355 10.8016,1.3525 10.7306,1.3985 L10.4306,1.4245 C9.7226,1.4825 9.6976,1.6885 9.6976,2.9595 L9.6976,7.2295 C9.6976,8.5005 9.7226,8.6685 10.4306,8.7525 L10.7306,8.7895 C10.8016,8.8385 10.7776,9.0535 10.7056,9.0905 C10.1066,9.0645 9.6976,9.0535 9.2186,9.0535 C8.7146,9.0535 8.3066,9.0645 7.7066,9.0905 C7.6346,9.0535 7.6106,8.8615 7.6826,8.7895 L7.9836,8.7525 C8.6906,8.6685 8.7146,8.5005 8.7146,7.2295 L8.7146,2.9595 Z" id="Fill-26"></path>
                    <path d="M20.4207,7.0142 C20.4207,7.3732 20.4207,8.8012 20.4577,9.1122 C20.4337,9.1862 20.3607,9.2442 20.2297,9.2442 C20.0847,9.0412 19.7377,8.6192 18.6937,7.4342 L15.9107,4.2662 C15.5867,3.8932 14.7717,2.9102 14.5197,2.6452 L14.4947,2.6452 C14.4467,2.7912 14.4357,3.0672 14.4357,3.4262 L14.4357,6.0412 C14.4357,6.6042 14.4467,8.1642 14.6507,8.5242 C14.7237,8.6572 14.9627,8.7292 15.2627,8.7522 L15.6347,8.7892 C15.7067,8.8852 15.6947,9.0302 15.6107,9.0902 C15.0707,9.0652 14.6507,9.0532 14.2067,9.0532 C13.7027,9.0532 13.3787,9.0652 12.9597,9.0902 C12.8757,9.0302 12.8627,8.8622 12.9357,8.7892 L13.2597,8.7522 C13.5347,8.7152 13.7277,8.6452 13.7877,8.5122 C13.9547,8.0802 13.9427,6.6182 13.9427,6.0412 L13.9427,2.5752 C13.9427,2.2392 13.9317,1.9872 13.6797,1.7112 C13.5117,1.5432 13.2237,1.4592 12.9357,1.4242 L12.7317,1.3992 C12.6587,1.3272 12.6587,1.1472 12.7557,1.0982 C13.2597,1.1352 13.8957,1.1352 14.1107,1.1352 C14.3037,1.1352 14.5077,1.1232 14.6627,1.0982 C14.9027,1.7112 16.3177,3.2952 16.7147,3.7392 L17.8777,5.0452 C18.7057,5.9692 19.2937,6.6412 19.8577,7.2172 L19.8817,7.2172 C19.9297,7.1572 19.9297,6.9652 19.9297,6.7132 L19.9297,4.1452 C19.9297,3.5822 19.9177,2.0242 19.6907,1.6622 C19.6167,1.5552 19.4257,1.4832 18.9447,1.4242 L18.7417,1.3992 C18.6577,1.3272 18.6697,1.1352 18.7657,1.0982 C19.3167,1.1232 19.7257,1.1352 20.1817,1.1352 C20.6967,1.1352 21.0087,1.1232 21.4167,1.0982 C21.5137,1.1602 21.5137,1.3272 21.4417,1.3992 L21.2737,1.4242 C20.8897,1.4832 20.6497,1.5782 20.6017,1.6742 C20.3977,2.1082 20.4207,3.5942 20.4207,4.1452 L20.4207,7.0142 Z" id="Fill-27"></path>
                    <path d="M25.0603,1.9634 C25.9363,1.2794 27.0513,0.9434 28.2993,0.9434 C28.9473,0.9434 29.8593,1.0764 30.4233,1.2314 C30.5673,1.2684 30.6513,1.2914 30.7593,1.2794 C30.7703,1.5554 30.8313,2.3114 30.9263,3.0434 C30.8673,3.1254 30.6873,3.1394 30.6033,3.0674 C30.4233,2.2504 29.8833,1.3154 28.1433,1.3154 C26.3083,1.3154 24.7483,2.4794 24.7483,4.9634 C24.7483,7.4814 26.3443,8.8734 28.3113,8.8734 C29.8593,8.8734 30.5423,7.8654 30.8193,7.1564 C30.9033,7.0964 31.0823,7.1214 31.1303,7.2054 C31.0463,7.8284 30.7353,8.6194 30.5553,8.8484 C30.4113,8.8734 30.2673,8.9204 30.1353,8.9694 C29.8713,9.0654 29.0073,9.2444 28.2393,9.2444 C27.1603,9.2444 26.1273,9.0294 25.2523,8.4404 C24.2923,7.7814 23.5493,6.6884 23.5493,5.1414 C23.5493,3.8114 24.1493,2.6704 25.0603,1.9634" id="Fill-28"></path>
                    <path d="M35.074,5.2017 C34.978,5.4787 34.99,5.4907 35.326,5.4907 L36.802,5.4907 C37.15,5.4907 37.174,5.4417 37.066,5.1177 L36.418,3.1627 C36.322,2.8757 36.215,2.5497 36.142,2.4067 L36.118,2.4067 C36.082,2.4677 35.963,2.7547 35.831,3.1137 L35.074,5.2017 Z M37.45,6.2677 C37.366,6.0047 37.318,5.9697 36.958,5.9697 L35.146,5.9697 C34.846,5.9697 34.775,6.0047 34.69,6.2587 L34.27,7.5177 C34.091,8.0567 34.007,8.3797 34.007,8.5127 C34.007,8.6567 34.066,8.7287 34.354,8.7527 L34.751,8.7897 C34.835,8.8477 34.835,9.0417 34.727,9.0907 C34.415,9.0647 34.043,9.0647 33.479,9.0537 C33.084,9.0537 32.651,9.0767 32.327,9.0907 C32.256,9.0417 32.231,8.8477 32.303,8.7897 L32.7,8.7527 C32.987,8.7287 33.251,8.5967 33.42,8.1647 C33.635,7.6137 33.97,6.8347 34.474,5.4907 L35.698,2.2507 C35.867,1.8187 35.938,1.5907 35.902,1.3987 C36.19,1.3147 36.394,1.0977 36.526,0.9437 C36.598,0.9437 36.682,0.9677 36.706,1.0517 C36.862,1.5787 37.054,2.1297 37.234,2.6587 L38.878,7.4807 C39.225,8.5127 39.382,8.6917 39.897,8.7527 L40.22,8.7897 C40.304,8.8477 40.281,9.0417 40.22,9.0907 C39.729,9.0647 39.309,9.0537 38.769,9.0537 C38.193,9.0537 37.738,9.0767 37.39,9.0907 C37.294,9.0417 37.282,8.8477 37.366,8.7897 L37.714,8.7527 C37.966,8.7287 38.134,8.6567 38.134,8.5357 C38.134,8.4027 38.074,8.1877 37.978,7.9007 L37.45,6.2677 Z" id="Fill-29"></path>
                    <path d="M49.4754,1.9634 C50.3514,1.2794 51.4664,0.9434 52.7144,0.9434 C53.3624,0.9434 54.2744,1.0764 54.8374,1.2314 C54.9814,1.2684 55.0654,1.2914 55.1734,1.2794 C55.1854,1.5554 55.2464,2.3114 55.3414,3.0434 C55.2814,3.1254 55.1014,3.1394 55.0174,3.0674 C54.8374,2.2504 54.2974,1.3154 52.5584,1.3154 C50.7224,1.3154 49.1634,2.4794 49.1634,4.9634 C49.1634,7.4814 50.7584,8.8734 52.7254,8.8734 C54.2744,8.8734 54.9574,7.8654 55.2334,7.1564 C55.3174,7.0964 55.4964,7.1214 55.5444,7.2054 C55.4614,7.8284 55.1504,8.6194 54.9694,8.8484 C54.8254,8.8734 54.6814,8.9204 54.5494,8.9694 C54.2864,9.0654 53.4214,9.2444 52.6544,9.2444 C51.5744,9.2444 50.5424,9.0294 49.6674,8.4404 C48.7074,7.7814 47.9634,6.6884 47.9634,5.1414 C47.9634,3.8114 48.5634,2.6704 49.4754,1.9634" id="Fill-30"></path>
                    <path d="M64.7674,5.4302 C64.7674,3.4512 63.8914,1.3152 61.6004,1.3152 C60.3534,1.3152 58.7334,2.1662 58.7334,4.7932 C58.7334,6.5692 59.5974,8.8732 61.9604,8.8732 C63.4004,8.8732 64.7674,7.7932 64.7674,5.4302 M57.5344,5.1782 C57.5344,2.7802 59.3324,0.9442 61.8044,0.9442 C64.5764,0.9442 65.9674,2.9462 65.9674,5.0592 C65.9674,7.4812 64.1194,9.2442 61.8044,9.2442 C59.1414,9.2442 57.5344,7.3382 57.5344,5.1782" id="Fill-31"></path>
                    <path d="M72.3826,5.8501 C72.6576,6.4121 72.9216,6.9651 73.2096,7.4951 L73.2346,7.4951 C73.5576,6.9301 73.8576,6.3051 74.1576,5.6941 L75.2846,3.4031 C75.8246,2.3111 76.1726,1.6531 76.1966,1.0981 C76.6056,1.1351 76.8566,1.1351 77.0966,1.1351 C77.3966,1.1351 77.7926,1.1231 78.1636,1.0981 C78.2366,1.1471 78.2366,1.3521 78.1766,1.3991 L77.9246,1.4241 C77.1686,1.4951 77.0726,1.7231 77.0846,2.5631 C77.1086,3.8341 77.1206,6.0531 77.2166,7.7821 C77.2526,8.3791 77.2396,8.7041 77.8046,8.7521 L78.1886,8.7891 C78.2606,8.8621 78.2476,9.0411 78.1636,9.0901 C77.6716,9.0651 77.1806,9.0531 76.7486,9.0531 C76.3286,9.0531 75.7886,9.0651 75.2966,9.0901 C75.2126,9.0301 75.2006,8.8621 75.2736,8.7891 L75.6206,8.7521 C76.2086,8.6921 76.2086,8.5001 76.2086,7.7331 L76.1726,2.7311 L76.1486,2.7311 C76.0656,2.8641 75.6096,3.8231 75.3686,4.2891 L74.3016,6.3891 C73.7616,7.4461 73.2216,8.5731 73.0056,9.1251 C72.9816,9.1611 72.9336,9.1721 72.8856,9.1721 C72.8616,9.1721 72.8016,9.1611 72.7786,9.1251 C72.5736,8.4871 71.9986,7.3131 71.7226,6.7251 L70.6426,4.4091 C70.3906,3.8601 70.1386,3.2351 69.8746,2.6821 L69.8516,2.6821 C69.8026,3.4261 69.7666,4.1211 69.7306,4.8191 C69.6946,5.5491 69.6476,6.6181 69.6476,7.6371 C69.6476,8.5241 69.7186,8.7151 70.1866,8.7521 L70.6426,8.7891 C70.7266,8.8621 70.7146,9.0531 70.6306,9.0901 C70.2226,9.0651 69.7546,9.0531 69.2986,9.0531 C68.9146,9.0531 68.4836,9.0651 68.0746,9.0901 C68.0036,9.0301 67.9796,8.8481 68.0516,8.7891 L68.3156,8.7521 C68.8196,8.6801 68.9866,8.6081 69.0596,7.7681 C69.1306,6.9791 69.1906,6.3171 69.2636,5.1291 C69.3226,4.1351 69.3706,3.1141 69.3946,2.4541 C69.4186,1.7001 69.3226,1.5201 68.5916,1.4241 L68.3996,1.3991 C68.3396,1.3271 68.3516,1.1471 68.4466,1.0981 C68.8066,1.1231 69.0946,1.1351 69.3946,1.1351 C69.6706,1.1351 69.9946,1.1351 70.3906,1.0981 C70.3426,1.5671 70.6426,2.3111 71.0146,3.0791 L72.3826,5.8501 Z" id="Fill-32"></path>
                    <path d="M82.3592,5.2017 C82.2622,5.4787 82.2752,5.4907 82.6112,5.4907 L84.0872,5.4907 C84.4342,5.4907 84.4592,5.4417 84.3502,5.1177 L83.7022,3.1627 C83.6062,2.8757 83.4992,2.5497 83.4262,2.4067 L83.4032,2.4067 C83.3662,2.4677 83.2472,2.7547 83.1152,3.1137 L82.3592,5.2017 Z M84.7352,6.2677 C84.6502,6.0047 84.6022,5.9697 84.2432,5.9697 L82.4312,5.9697 C82.1302,5.9697 82.0592,6.0047 81.9752,6.2587 L81.5552,7.5177 C81.3762,8.0567 81.2922,8.3797 81.2922,8.5127 C81.2922,8.6567 81.3512,8.7287 81.6392,8.7527 L82.0352,8.7897 C82.1192,8.8477 82.1192,9.0417 82.0112,9.0907 C81.6992,9.0647 81.3282,9.0647 80.7632,9.0537 C80.3682,9.0537 79.9362,9.0767 79.6122,9.0907 C79.5402,9.0417 79.5152,8.8477 79.5882,8.7897 L79.9842,8.7527 C80.2722,8.7287 80.5362,8.5967 80.7042,8.1647 C80.9202,7.6137 81.2552,6.8347 81.7592,5.4907 L82.9822,2.2507 C83.1512,1.8187 83.2222,1.5907 83.1862,1.3987 C83.4742,1.3147 83.6782,1.0977 83.8102,0.9437 C83.8822,0.9437 83.9662,0.9677 83.9902,1.0517 C84.1462,1.5787 84.3382,2.1297 84.5182,2.6587 L86.1622,7.4807 C86.5092,8.5127 86.6662,8.6917 87.1812,8.7527 L87.5052,8.7897 C87.5892,8.8477 87.5652,9.0417 87.5052,9.0907 C87.0132,9.0647 86.5932,9.0537 86.0532,9.0537 C85.4782,9.0537 85.0222,9.0767 84.6742,9.0907 C84.5792,9.0417 84.5662,8.8477 84.6502,8.7897 L84.9982,8.7527 C85.2512,8.7287 85.4182,8.6567 85.4182,8.5357 C85.4182,8.4027 85.3582,8.1877 85.2622,7.9007 L84.7352,6.2677 Z" id="Fill-33"></path>
                    <path d="M91.2097,9.2446 C90.2017,9.2446 89.5657,8.9336 89.3387,8.8016 C89.1937,8.5356 89.0377,7.6856 89.0147,7.1216 C89.0737,7.0376 89.2547,7.0146 89.3027,7.0866 C89.4817,7.6976 89.9747,8.8736 91.3657,8.8736 C92.3727,8.8736 92.8647,8.2116 92.8647,7.4946 C92.8647,6.9656 92.7577,6.3776 91.8817,5.8126 L90.7417,5.0706 C90.1427,4.6746 89.4467,3.9906 89.4467,3.0066 C89.4467,1.8676 90.3337,0.9436 91.8937,0.9436 C92.2657,0.9436 92.6967,1.0156 93.0097,1.0986 C93.1647,1.1466 93.3327,1.1726 93.4297,1.1726 C93.5367,1.4596 93.6447,2.1296 93.6447,2.6336 C93.5967,2.7056 93.4047,2.7406 93.3457,2.6706 C93.1887,2.0966 92.8647,1.3146 91.7137,1.3146 C90.5377,1.3146 90.2857,2.0966 90.2857,2.6446 C90.2857,3.3426 90.8607,3.8466 91.3057,4.1216 L92.2657,4.7216 C93.0207,5.1896 93.7657,5.8876 93.7657,7.0256 C93.7657,8.3446 92.7697,9.2446 91.2097,9.2446" id="Fill-34"></path>
                    <path d="M98.2732,9.2446 C97.2652,9.2446 96.6292,8.9336 96.4022,8.8016 C96.2572,8.5356 96.1022,7.6856 96.0782,7.1216 C96.1382,7.0376 96.3182,7.0146 96.3662,7.0866 C96.5452,7.6976 97.0382,8.8736 98.4292,8.8736 C99.4372,8.8736 99.9282,8.2116 99.9282,7.4946 C99.9282,6.9656 99.8212,6.3776 98.9452,5.8126 L97.8052,5.0706 C97.2062,4.6746 96.5102,3.9906 96.5102,3.0066 C96.5102,1.8676 97.3972,0.9436 98.9582,0.9436 C99.3292,0.9436 99.7612,1.0156 100.0732,1.0986 C100.2282,1.1466 100.3972,1.1726 100.4932,1.1726 C100.6012,1.4596 100.7092,2.1296 100.7092,2.6336 C100.6612,2.7056 100.4682,2.7406 100.4092,2.6706 C100.2522,2.0966 99.9282,1.3146 98.7772,1.3146 C97.6012,1.3146 97.3492,2.0966 97.3492,2.6446 C97.3492,3.3426 97.9252,3.8466 98.3702,4.1216 L99.3292,4.7216 C100.0852,5.1896 100.8292,5.8876 100.8292,7.0256 C100.8292,8.3446 99.8332,9.2446 98.2732,9.2446" id="Fill-35"></path>
                    <path d="M104.1853,2.9341 C104.1853,1.6881 104.1623,1.5061 103.4543,1.4241 L103.2623,1.3991 C103.1903,1.3521 103.2133,1.1351 103.2863,1.0981 C103.8013,1.1231 104.2093,1.1351 104.7013,1.1351 L106.9563,1.1351 C107.7243,1.1351 108.4323,1.1351 108.5763,1.0981 C108.6483,1.3031 108.7203,2.1661 108.7683,2.6941 C108.7203,2.7661 108.5283,2.7911 108.4683,2.7171 C108.2883,2.1551 108.1813,1.7351 107.5573,1.5791 C107.3043,1.5201 106.9203,1.5061 106.3933,1.5061 L105.5293,1.5061 C105.1693,1.5061 105.1693,1.5321 105.1693,1.9871 L105.1693,4.3851 C105.1693,4.7211 105.2063,4.7211 105.5653,4.7211 L106.2613,4.7211 C106.7643,4.7211 107.1363,4.6981 107.2813,4.6491 C107.4243,4.6021 107.5093,4.5301 107.5693,4.2311 L107.6643,3.7391 C107.7243,3.6661 107.9283,3.6661 107.9773,3.7501 C107.9773,4.0391 107.9283,4.5041 107.9283,4.9631 C107.9283,5.3951 107.9773,5.8501 107.9773,6.1141 C107.9283,6.1961 107.7243,6.1961 107.6643,6.1251 L107.5573,5.6591 C107.5093,5.4421 107.4243,5.2621 107.1843,5.2021 C107.0173,5.1551 106.7293,5.1411 106.2613,5.1411 L105.5653,5.1411 C105.2063,5.1411 105.1693,5.1551 105.1693,5.4651 L105.1693,7.1571 C105.1693,7.7931 105.2063,8.2001 105.3973,8.4031 C105.5413,8.5491 105.7933,8.6801 106.8493,8.6801 C107.7723,8.6801 108.1213,8.6311 108.3843,8.5001 C108.6003,8.3791 108.9243,7.9611 109.2363,7.3381 C109.3203,7.2781 109.4883,7.3131 109.5363,7.4221 C109.4523,7.8421 109.1523,8.7641 108.9973,9.0901 C107.9163,9.0651 106.8493,9.0531 105.7813,9.0531 L104.7013,9.0531 C104.1853,9.0531 103.7783,9.0651 103.0703,9.0901 C102.9983,9.0531 102.9743,8.8621 103.0463,8.7891 L103.4423,8.7521 C104.1253,8.6921 104.1853,8.5121 104.1853,7.2521 L104.1853,2.9341 Z" id="Fill-36"></path>
                    <path d="M115.5203,5.8501 C115.7953,6.4121 116.0593,6.9651 116.3473,7.4951 L116.3723,7.4951 C116.6953,6.9301 116.9953,6.3051 117.2953,5.6941 L118.4223,3.4031 C118.9623,2.3111 119.3113,1.6531 119.3343,1.0981 C119.7433,1.1351 119.9943,1.1351 120.2343,1.1351 C120.5343,1.1351 120.9303,1.1231 121.3013,1.0981 C121.3743,1.1471 121.3743,1.3521 121.3143,1.3991 L121.0623,1.4241 C120.3063,1.4951 120.2103,1.7231 120.2223,2.5631 C120.2463,3.8341 120.2583,6.0531 120.3543,7.7821 C120.3903,8.3791 120.3773,8.7041 120.9423,8.7521 L121.3263,8.7891 C121.3983,8.8621 121.3853,9.0411 121.3013,9.0901 C120.8103,9.0651 120.3193,9.0531 119.8863,9.0531 C119.4663,9.0531 118.9263,9.0651 118.4343,9.0901 C118.3513,9.0301 118.3383,8.8621 118.4113,8.7891 L118.7583,8.7521 C119.3463,8.6921 119.3463,8.5001 119.3463,7.7331 L119.3113,2.7311 L119.2873,2.7311 C119.2033,2.8641 118.7473,3.8231 118.5063,4.2891 L117.4393,6.3891 C116.8993,7.4461 116.3593,8.5731 116.1433,9.1251 C116.1203,9.1611 116.0713,9.1721 116.0233,9.1721 C115.9993,9.1721 115.9393,9.1611 115.9163,9.1251 C115.7113,8.4871 115.1363,7.3131 114.8603,6.7251 L113.7803,4.4091 C113.5283,3.8601 113.2763,3.2351 113.0123,2.6821 L112.9893,2.6821 C112.9403,3.4261 112.9043,4.1211 112.8693,4.8191 C112.8323,5.5491 112.7853,6.6181 112.7853,7.6371 C112.7853,8.5241 112.8563,8.7151 113.3253,8.7521 L113.7803,8.7891 C113.8643,8.8621 113.8523,9.0531 113.7683,9.0901 C113.3613,9.0651 112.8923,9.0531 112.4363,9.0531 C112.0523,9.0531 111.6213,9.0651 111.2123,9.0901 C111.1413,9.0301 111.1173,8.8481 111.1893,8.7891 L111.4533,8.7521 C111.9573,8.6801 112.1243,8.6081 112.1973,7.7681 C112.2693,6.9791 112.3283,6.3171 112.4013,5.1291 C112.4603,4.1351 112.5083,3.1141 112.5323,2.4541 C112.5563,1.7001 112.4603,1.5201 111.7293,1.4241 L111.5373,1.3991 C111.4773,1.3271 111.4893,1.1471 111.5843,1.0981 C111.9443,1.1231 112.2323,1.1351 112.5323,1.1351 C112.8083,1.1351 113.1323,1.1351 113.5283,1.0981 C113.4803,1.5671 113.7803,2.3111 114.1523,3.0791 L115.5203,5.8501 Z" id="Fill-37"></path>
                    <path d="M125.4969,5.2017 C125.3999,5.4787 125.4129,5.4907 125.7489,5.4907 L127.2249,5.4907 C127.5719,5.4907 127.5969,5.4417 127.4889,5.1177 L126.8409,3.1627 C126.7439,2.8757 126.6369,2.5497 126.5639,2.4067 L126.5409,2.4067 C126.5049,2.4677 126.3849,2.7547 126.2529,3.1137 L125.4969,5.2017 Z M127.8729,6.2677 C127.7879,6.0047 127.7399,5.9697 127.3809,5.9697 L125.5689,5.9697 C125.2679,5.9697 125.1969,6.0047 125.1129,6.2587 L124.6929,7.5177 C124.5139,8.0567 124.4299,8.3797 124.4299,8.5127 C124.4299,8.6567 124.4889,8.7287 124.7769,8.7527 L125.1729,8.7897 C125.2569,8.8477 125.2569,9.0417 125.1489,9.0907 C124.8369,9.0647 124.4659,9.0647 123.9009,9.0537 C123.5059,9.0537 123.0739,9.0767 122.7499,9.0907 C122.6779,9.0417 122.6539,8.8477 122.7259,8.7897 L123.1219,8.7527 C123.4099,8.7287 123.6739,8.5967 123.8419,8.1647 C124.0579,7.6137 124.3929,6.8347 124.8969,5.4907 L126.1199,2.2507 C126.2889,1.8187 126.3599,1.5907 126.3249,1.3987 C126.6119,1.3147 126.8169,1.0977 126.9479,0.9437 C127.0199,0.9437 127.1039,0.9677 127.1289,1.0517 C127.2839,1.5787 127.4759,2.1297 127.6559,2.6587 L129.2999,7.4807 C129.6479,8.5127 129.8039,8.6917 130.3189,8.7527 L130.6429,8.7897 C130.7269,8.8477 130.7029,9.0417 130.6429,9.0907 C130.1509,9.0647 129.7309,9.0537 129.1909,9.0537 C128.6159,9.0537 128.1609,9.0767 127.8119,9.0907 C127.7169,9.0417 127.7039,8.8477 127.7879,8.7897 L128.1369,8.7527 C128.3889,8.7287 128.5559,8.6567 128.5559,8.5357 C128.5559,8.4027 128.4959,8.1877 128.3999,7.9007 L127.8729,6.2677 Z" id="Fill-38"></path>
                </g>
            </g>
            <g id="imago">
                <path d="M15.1707,6.4106 C15.1687,6.4106 15.1687,6.4106 15.1687,6.4086 L15.1687,6.4126 C15.1687,6.4126 15.1697,6.4126 15.1707,6.4106" id="Fill-20"></path>
                <path d="M16.5574,38.9185 C16.4974,38.8815 16.4354,38.8545 16.3704,38.8305 L16.3694,38.8285 L16.7674,39.0575 C16.7024,39.0045 16.6314,38.9575 16.5574,38.9185" id="Fill-21"></path>
                <path d="M14.9197,38.4146 C14.8727,38.4126 14.8257,38.4066 14.7987,38.3736 C14.6917,38.2366 14.5397,38.1566 14.4197,38.0396 C14.1847,37.8146 13.8857,37.8076 13.5937,37.7816 C13.5587,37.7796 13.5227,37.7936 13.4867,37.8036 C13.2357,37.8576 13.0177,37.9906 12.8047,38.1176 C12.5567,38.2686 12.4617,38.5296 12.4597,38.8126 C12.4577,38.9026 12.4257,39.0006 12.4957,39.0806 C12.5507,39.1436 12.5987,39.2136 12.6507,39.2756 C12.7037,39.3386 12.7557,39.4026 12.8327,39.4306 C13.1447,39.5476 13.4697,39.5606 13.7697,39.4376 C14.1447,39.2796 14.4887,39.0556 14.7837,38.7686 C14.8437,38.7116 14.9147,38.6706 14.9887,38.6826 C15.1607,38.7076 15.3237,38.6546 15.4867,38.6436 C15.7347,38.6276 15.9627,38.7136 16.1957,38.7666 C16.2577,38.7816 16.3117,38.8096 16.3677,38.8286 L15.8417,38.5256 L15.5817,38.3756 C15.5997,38.3856 15.6167,38.3936 15.6287,38.4166 C15.5977,38.4416 15.5687,38.4356 15.5417,38.4356 C15.3337,38.4306 15.1267,38.4186 14.9197,38.4146" id="Fill-22"></path>
                <path d="M7.3504,30.6606 C7.3754,30.6076 7.4044,30.5586 7.4344,30.5096 C7.4524,30.5486 7.4554,30.5836 7.4144,30.6166 L7.6434,30.9096 C7.5704,30.8496 7.4964,30.7936 7.4244,30.7316 C7.4164,30.7276 7.4074,30.7226 7.3944,30.7136 C7.3684,30.7596 7.3394,30.8026 7.3184,30.8476 C7.2594,30.9676 7.2024,31.0896 7.1494,31.2126 C7.1014,31.3226 7.0624,31.4346 7.0144,31.5456 C6.9444,31.7066 6.8704,31.8576 6.8024,32.0186 C6.7574,32.1246 6.7224,32.2376 6.6804,32.3476 C6.6634,32.3896 6.6404,32.4306 6.6184,32.4736 C6.6144,32.4726 6.6094,32.4726 6.6094,32.4726 C6.6154,32.4336 6.6234,32.4016 6.6344,32.3686 C6.6754,32.2516 6.7154,32.1336 6.7594,32.0186 C6.7954,31.9246 6.8354,31.8296 6.8714,31.7336 C6.9164,31.6136 6.9554,31.4976 7.0034,31.3836 C7.0554,31.2616 7.1164,31.1396 7.1724,31.0196 C7.2324,30.9006 7.2894,30.7786 7.3504,30.6606 M14.0754,36.9526 L14.0804,36.9566 C14.0794,37.0146 14.0794,37.0746 14.0814,37.1346 C14.0394,37.1096 13.9974,37.0866 13.9554,37.0596 C14.0014,37.0336 14.0414,36.9986 14.0754,36.9526 M14.6604,34.1816 L14.6604,34.1816 L15.5444,35.7936 C15.7024,36.2656 16.0224,36.6216 16.3854,36.9436 C16.5094,37.1976 16.6314,37.4516 16.7544,37.7076 C16.7964,37.8906 16.8384,38.0766 16.8804,38.2646 C16.8484,38.2956 17.0034,38.7406 16.7674,38.6546 C16.7674,38.6546 15.0874,37.5686 14.8504,37.3736 C14.8394,37.3776 14.8284,37.3756 14.8174,37.3776 C14.7444,37.2576 14.6704,37.1346 14.5974,37.0146 C14.5744,36.9266 14.5514,36.8406 14.5274,36.7536 C14.7324,36.1776 14.7214,35.5916 14.6304,34.9986 C14.6074,34.9156 14.5864,34.8316 14.5664,34.7506 C14.6234,34.6416 14.5824,34.5336 14.5774,34.4246 C14.5624,34.1356 14.4214,33.8916 14.2954,33.6446 C14.4334,33.8126 14.5624,33.9856 14.6604,34.1816 M24.9394,4.3966 C25.4104,4.0756 25.9004,3.7956 26.4304,3.5826 C27.0134,3.3516 27.5884,3.0996 28.1894,2.9146 C28.6184,2.7786 29.0474,2.6376 29.4754,2.4976 C29.2444,2.6266 29.0144,2.7566 28.7864,2.8856 C28.1884,3.2336 27.5604,3.5176 26.9404,3.8216 C26.3754,4.0976 25.7864,4.2996 25.1814,4.4576 C24.9914,4.5086 24.7994,4.5626 24.6104,4.6116 C24.7194,4.5426 24.8304,4.4706 24.9394,4.3966 M40.1944,12.3086 C40.0854,12.2596 39.9734,12.2156 39.8684,12.1596 C39.5064,11.9716 39.1844,11.7216 38.8274,11.5266 C38.6184,11.4106 38.4244,11.2646 38.2124,11.1566 C37.8854,10.9886 37.5554,10.8346 37.1924,10.7406 C36.8154,10.6456 36.4364,10.5716 36.0554,10.5066 C35.7584,10.4576 35.4644,10.4066 35.1764,10.3176 C34.8814,10.2276 34.6064,10.0976 34.3504,9.9266 C34.0554,9.7286 33.8234,9.4586 33.5064,9.2936 C33.4964,9.2916 33.4874,9.2786 33.4794,9.2716 C33.3554,9.1276 33.2264,8.9926 33.1124,8.8416 C33.0344,8.7406 32.9214,8.6626 32.8684,8.5146 C32.9554,8.5316 32.6594,8.2406 32.6204,8.2096 C32.4894,8.0926 32.4104,7.9336 32.2954,7.8066 C32.1574,7.6526 31.9944,7.5216 31.8324,7.3916 C31.7844,7.3506 31.7704,7.3176 31.8214,7.2956 C31.8944,7.3226 31.9674,7.3536 32.0404,7.3816 C32.1524,7.4206 32.2394,7.5046 32.3524,7.5436 C32.6674,7.6546 32.9574,7.8286 33.2594,7.9676 C33.4434,8.0566 33.6474,8.1096 33.7914,8.2706 C33.9634,8.4596 34.1854,8.5866 34.3894,8.7336 C34.6484,8.9286 34.9404,9.0706 35.2284,9.2206 C35.3294,9.2766 35.4314,9.3266 35.5374,9.3666 C35.6644,9.4186 35.7964,9.4606 35.9324,9.4936 C36.0614,9.5236 36.1924,9.5566 36.3214,9.5926 C36.5714,9.6576 36.8254,9.6576 37.0774,9.6526 C37.2444,9.6466 37.4114,9.6596 37.5804,9.6576 C37.6814,9.6556 37.7194,9.6126 37.6954,9.5306 C37.6854,9.4986 37.6614,9.4806 37.6344,9.4656 C37.4994,9.3716 37.3394,9.3316 37.1954,9.2576 C36.9494,9.1276 36.7034,8.9926 36.4604,8.8586 C36.2414,8.7376 36.0404,8.5776 35.7844,8.5206 C35.6464,8.4886 35.5214,8.4016 35.3894,8.3376 C35.2944,8.2966 35.1954,8.2686 35.0974,8.2386 C34.8824,8.1726 34.6664,8.1026 34.4434,8.0606 C34.2794,8.0316 34.1154,8.0256 33.9514,8.0446 C33.7904,8.0606 33.6444,8.0256 33.4984,7.9606 C33.2834,7.8676 33.0694,7.7756 32.8604,7.6656 C32.8434,7.6546 32.8084,7.6546 32.8164,7.6246 C32.8234,7.5946 32.8524,7.5946 32.8794,7.5926 C32.9784,7.5816 33.0774,7.5766 33.1794,7.5656 C33.2184,7.5586 33.2534,7.5476 33.2814,7.5166 C33.3324,7.4566 33.4094,7.4866 33.4714,7.4756 C33.7054,7.4476 33.9444,7.4596 34.1804,7.4636 C34.4564,7.4696 34.7294,7.4476 34.9994,7.4116 C35.3404,7.3686 35.6784,7.3016 36.0154,7.2386 C36.2674,7.1906 36.5124,7.1076 36.7654,7.0766 C36.9664,7.0536 37.1674,7.0196 37.3714,7.0366 C37.4004,7.0416 37.4284,7.0346 37.4554,7.0276 C37.5044,7.0196 37.5634,7.0146 37.5664,6.9476 C37.5704,6.8816 37.5094,6.8756 37.4674,6.8686 C37.3414,6.8496 37.2434,6.7716 37.1334,6.7186 C37.0394,6.6746 36.9434,6.6466 36.8444,6.6146 C36.8104,6.6036 36.7744,6.5956 36.7404,6.5826 C36.4564,6.4766 36.1664,6.4536 35.8714,6.5326 C35.8184,6.5476 35.7614,6.5556 35.7054,6.5496 C35.5604,6.5356 35.4364,6.5866 35.3124,6.6466 C35.1954,6.7006 35.0694,6.7246 34.9474,6.7636 C34.7334,6.8366 34.5294,6.9306 34.3184,7.0146 C34.2024,7.0636 34.0734,7.0936 33.9484,7.1076 C33.8234,7.1256 33.7074,7.1646 33.5954,7.2076 C33.3984,7.2866 33.1974,7.3366 32.9824,7.3266 C32.8814,7.3176 32.7844,7.3536 32.6834,7.3556 C32.5544,7.3576 32.4334,7.3536 32.3114,7.2956 C32.1874,7.2326 32.0524,7.1956 31.9194,7.1646 C31.9074,7.1316 31.8794,7.1146 31.8474,7.1016 C31.7474,7.0586 31.6574,7.0006 31.5464,6.9846 C31.5184,6.9806 31.4874,6.9636 31.4874,6.9316 L31.4484,6.9406 C31.4464,6.9386 31.4454,6.9366 31.4404,6.9316 C31.3894,6.8626 31.3244,6.8346 31.2724,6.7636 C31.2564,6.7286 30.9074,6.5376 30.4654,6.3066 C30.4624,6.2446 30.5364,6.0576 30.5904,6.0286 C30.7234,5.9606 30.8544,5.8946 30.9884,5.8286 C31.1194,5.7646 31.2504,5.6976 31.3874,5.6396 C31.5124,5.5836 31.6434,5.5396 31.7704,5.4886 C31.8754,5.4456 31.9794,5.4026 32.0864,5.3616 C32.2144,5.3106 32.3444,5.2666 32.4724,5.2196 C32.5094,5.2046 32.5474,5.1956 32.5864,5.1856 C32.5884,5.1886 32.5894,5.1936 32.5924,5.1996 C32.5444,5.2216 32.4994,5.2516 32.4514,5.2686 C32.3304,5.3166 32.2054,5.3566 32.0874,5.4086 C31.9134,5.4866 31.7464,5.5686 31.5714,5.6476 C31.4494,5.7016 31.3244,5.7446 31.2024,5.7996 C31.0674,5.8606 30.9344,5.9246 30.8024,5.9906 C30.7524,6.0156 30.7084,6.0456 30.6584,6.0746 C30.6714,6.0916 30.6754,6.0996 30.6834,6.1106 C30.7844,6.2216 30.8834,6.3326 30.9894,6.4436 C31.0124,6.4666 31.0504,6.4876 31.0794,6.4896 C31.1314,6.4926 31.1814,6.4766 31.2334,6.4706 C31.2444,6.4686 31.2614,6.4686 31.2754,6.4736 C31.3224,6.4896 31.3684,6.5196 31.4164,6.5216 C31.4964,6.5266 31.5364,6.5736 31.5774,6.6296 C31.6114,6.6746 31.6374,6.6806 31.6804,6.6446 C31.7174,6.6146 31.7504,6.5786 31.7844,6.5426 C31.8514,6.4706 31.9434,6.4576 32.0404,6.4616 C32.1164,6.4616 32.1914,6.4556 32.2654,6.4666 C32.3634,6.4736 32.4614,6.4826 32.5554,6.5096 C32.6284,6.5286 32.6404,6.5326 32.6464,6.4616 C32.6504,6.4396 32.6444,6.4146 32.6444,6.3906 C32.6454,6.3216 32.6154,6.2466 32.6784,6.1956 C32.7154,6.1656 32.7564,6.1396 32.7994,6.1196 C32.9344,6.0666 33.0764,6.0666 33.2224,6.0826 C33.2714,6.0896 33.3194,6.0996 33.3694,6.1086 C33.3764,6.0576 33.4004,6.0196 33.3464,5.9746 C33.3134,5.9446 33.2974,5.8926 33.3424,5.8566 C33.3854,5.8226 33.4334,5.7876 33.4864,5.7646 C33.5934,5.7196 33.7094,5.7336 33.8244,5.7446 C33.9024,5.7536 34.0094,5.7296 34.0254,5.6646 C34.0374,5.6086 34.0414,5.5506 34.0384,5.4926 C34.0364,5.4516 34.0104,5.4126 34.0034,5.3696 C33.9964,5.3086 34.0414,5.2756 34.0854,5.2426 C34.1764,5.1816 34.1844,5.1096 34.1154,5.0236 C34.0374,4.9216 34.0374,4.8986 34.1214,4.8126 C34.1904,4.7436 34.2494,4.6716 34.2434,4.5646 C34.2424,4.5256 34.2164,4.4656 34.1824,4.4576 C34.0774,4.4286 33.9714,4.4046 33.8684,4.3716 C33.8264,4.3596 33.7794,4.3406 33.7484,4.3106 C33.7094,4.2736 33.6804,4.2246 33.6534,4.1786 C33.6154,4.1126 33.4964,4.0356 33.4214,4.0426 C33.3444,4.0516 33.2654,4.0566 33.1934,4.0806 C33.0764,4.1126 32.9744,4.1056 32.8774,4.0256 C32.8244,3.9786 32.7554,3.9576 32.6934,3.9706 C32.5904,3.9896 32.4864,4.0256 32.4184,4.1056 C32.3604,4.1786 32.2834,4.2116 32.1944,4.2326 C32.1594,4.2416 32.1314,4.2396 32.1144,4.2076 C32.0924,4.1696 32.0654,4.1316 32.0524,4.0916 C32.0344,4.0356 31.9914,4.0336 31.9564,4.0406 C31.9204,4.0446 31.8764,4.0646 31.8594,4.0956 C31.8004,4.1896 31.7514,4.2946 31.6984,4.3946 C31.6794,4.4306 31.6484,4.4436 31.6054,4.4336 C31.5414,4.4146 31.4764,4.3966 31.4134,4.3886 C31.3744,4.3816 31.3314,4.3816 31.2994,4.3986 C31.2644,4.4146 31.2374,4.4456 31.2154,4.4786 C31.1864,4.5216 31.1694,4.5706 31.1444,4.6186 C31.0794,4.7346 31.0034,4.8426 30.8454,4.8426 C30.7824,4.8426 30.7444,4.8756 30.7014,4.9066 C30.6904,4.9146 30.6804,4.9306 30.6794,4.9436 C30.6734,5.0066 30.6744,5.0686 30.6664,5.1316 C30.6644,5.1486 30.6524,5.1736 30.6374,5.1816 C30.5984,5.2016 30.5534,5.2156 30.5124,5.2346 C30.4894,5.2476 30.4594,5.2586 30.4484,5.2816 C30.4314,5.3106 30.4424,5.3426 30.4704,5.3766 C30.5054,5.4186 30.5414,5.4696 30.5544,5.5206 C30.5734,5.5966 30.5744,5.6776 30.5764,5.7586 C30.5764,5.8046 30.5674,5.8496 30.5604,5.8976 C30.5594,5.9086 30.5484,5.9186 30.5394,5.9226 C30.4754,5.9446 30.4124,5.9666 30.3484,5.9836 C30.3044,5.9966 30.1494,6.0246 30.1044,6.0196 C30.0564,6.0156 29.8454,5.9786 29.7964,5.9646 L29.8034,5.9696 C29.1984,5.6646 28.6204,5.3906 28.5524,5.3906 C28.2814,5.2046 26.5814,4.9696 26.5814,4.9696 C26.1694,4.9356 25.8734,4.8346 25.3614,4.8856 C25.2184,4.9026 24.5524,4.8126 24.4214,4.9006 C24.3834,4.8896 24.3144,4.8776 24.2344,4.8636 C24.2424,4.8596 24.2514,4.8526 24.2614,4.8486 C24.2934,4.8406 24.3254,4.8226 24.3554,4.8006 C24.4294,4.7386 24.5274,4.7176 24.6174,4.6936 C25.0244,4.5906 25.4324,4.4896 25.8454,4.4176 C26.5954,4.2906 27.3214,4.0626 28.0484,3.8576 C28.4554,3.7446 28.8564,3.6106 29.2594,3.4766 C29.8374,3.2846 30.3954,3.0366 30.9634,2.8136 C31.1394,2.7476 31.3144,2.6736 31.4964,2.5636 C31.4064,2.5576 31.3444,2.5926 31.2864,2.6226 C31.1664,2.6806 31.0424,2.7296 30.9144,2.7756 C30.4564,2.9476 30.0104,3.1546 29.5454,3.3176 C29.0294,3.4966 28.5104,3.6746 27.9844,3.8236 C27.4804,3.9686 26.9824,4.1256 26.4704,4.2436 C26.1844,4.3106 25.8954,4.3596 25.6044,4.4106 C25.6634,4.3576 25.7394,4.3346 25.8134,4.3146 C26.1724,4.2266 26.5094,4.0786 26.8454,3.9246 C27.1914,3.7656 27.5324,3.5936 27.8744,3.4286 C28.2714,3.2386 28.6604,3.0326 29.0424,2.8096 C29.2724,2.6786 29.5044,2.5436 29.7364,2.4126 C29.9264,2.3506 30.1174,2.2896 30.3084,2.2276 C30.3644,2.2096 30.4254,2.1956 30.4644,2.1396 C30.4514,2.1426 30.4384,2.1426 30.4254,2.1466 C30.2614,2.1976 30.0974,2.2476 29.9334,2.2996 C30.0954,2.2066 30.2574,2.1116 30.4184,2.0196 C30.6354,1.8926 30.8514,1.7656 31.0664,1.6406 C31.0794,1.6346 31.0894,1.6256 31.1014,1.6146 C31.0274,1.6096 30.9704,1.6496 30.9144,1.6816 C30.5054,1.9126 30.0994,2.1426 29.6924,2.3746 C29.2594,2.5106 28.8274,2.6486 28.3944,2.7826 C28.0114,2.9026 27.6354,3.0396 27.2644,3.1906 C26.9444,3.3196 26.6204,3.4446 26.3024,3.5806 C25.9934,3.7146 25.6894,3.8516 25.4124,4.0446 C25.3554,4.0846 25.2954,4.1236 25.2224,4.1296 C25.4274,3.9576 25.6354,3.7866 25.8524,3.6276 C26.2384,3.3486 26.6454,3.0996 27.0434,2.8426 C27.4614,2.5706 27.8944,2.3246 28.3264,2.0816 C28.7154,1.8646 29.1284,1.6896 29.5224,1.4806 C29.6304,1.4226 29.7374,1.3696 29.8524,1.3236 C29.9074,1.3026 29.9674,1.2816 30.0164,1.2146 C29.8304,1.2706 29.6754,1.3456 29.5234,1.4226 C29.0284,1.6686 28.5234,1.8996 28.0434,2.1786 C27.7114,2.3706 27.3794,2.5636 27.0574,2.7716 C26.4814,3.1506 25.8914,3.5096 25.3594,3.9536 C25.0664,4.1986 24.7514,4.4146 24.4384,4.6336 C24.4194,4.6466 24.4024,4.6566 24.3834,4.6696 L24.3774,4.6696 C24.3074,4.6836 24.2384,4.7176 24.1684,4.7456 C24.1474,4.7526 24.1304,4.7646 24.1174,4.7796 C24.0994,4.7916 24.0834,4.8056 24.0694,4.8206 C24.0644,4.8276 24.0594,4.8316 24.0534,4.8366 C23.7814,4.7986 23.4534,4.7646 23.3444,4.7856 C22.2924,4.7506 21.2384,4.6466 20.2084,4.9696 C20.0874,4.9456 19.9744,4.9716 19.8674,5.0236 C19.8464,5.0276 19.8264,5.0376 19.8054,5.0466 C19.7274,5.0506 19.6484,5.0486 19.5714,5.0626 C19.3704,5.0966 19.0874,5.2836 19.0064,5.0066 C18.9394,4.7686 19.1034,4.5486 19.3904,4.3966 C19.7214,4.2206 20.0534,4.0556 20.3964,3.9046 C20.7084,3.9066 20.9934,3.8146 21.2594,3.6546 C21.2594,3.6546 21.2594,3.6566 21.2604,3.6566 L21.2684,3.6506 C21.3684,3.6546 21.4644,3.6446 21.5324,3.5536 C21.8424,3.6926 22.1174,3.5476 22.3964,3.4406 C22.4584,3.4046 22.5224,3.3736 22.5834,3.3416 C22.8064,3.2446 23.0274,3.1446 23.2474,3.0476 C23.5004,2.9206 23.7524,2.7916 24.0054,2.6646 C24.1784,2.5556 24.3644,2.4616 24.5234,2.3336 C24.6674,2.2156 24.6984,2.0376 24.6464,1.8556 C24.5974,1.6816 24.4404,1.6626 24.3024,1.6566 C23.7864,1.6356 23.2654,1.5476 22.7544,1.7156 C22.5234,1.6526 22.2934,1.5996 22.1094,1.8186 C21.8704,1.8926 21.6314,1.9596 21.4224,2.0986 C21.3954,2.0986 21.3694,2.1056 21.3494,2.1256 C21.1614,2.2196 20.9744,2.3116 20.7844,2.4086 C20.6454,2.4496 20.5334,2.5266 20.4894,2.6766 C20.1844,2.8766 19.8404,3.0236 19.6244,3.3396 C19.5624,3.4026 19.4994,3.4696 19.4374,3.5296 C19.1634,3.8986 18.9044,4.2836 18.8064,4.7346 C18.7284,5.0946 18.5614,5.3336 18.2074,5.4376 C18.0744,5.4996 17.9394,5.5566 17.8054,5.6176 C17.3894,5.7586 16.9484,5.8356 16.5874,6.1126 C16.5434,6.0786 15.9304,6.3906 15.2214,6.7736 C15.3424,6.5986 15.4574,6.3496 15.6294,6.2746 C15.7014,6.2406 15.7844,6.1966 15.6954,6.0946 C15.6584,6.0496 15.7054,6.0196 15.7324,5.9946 C15.8674,5.8636 16.0014,5.7316 16.1364,5.6026 C16.2744,5.4676 16.4294,5.3466 16.5444,5.1916 C16.8304,4.8146 17.0814,4.4106 17.3394,4.0116 C17.5194,3.7286 17.6584,3.4206 17.8634,3.1506 C17.9684,3.0126 18.0094,2.8226 18.0764,2.6556 C18.1794,2.3906 18.2024,2.1036 18.2834,1.8326 C18.3304,1.6686 18.3624,1.5026 18.3674,1.3346 C18.3794,0.9496 18.3334,0.5696 18.2834,0.1906 C18.2804,0.1566 18.2744,0.1196 18.2414,0.1116 C18.1934,0.0966 18.1844,0.1426 18.1674,0.1726 C18.1144,0.2806 18.0684,0.3926 18.0094,0.4966 C17.8084,0.8496 17.5464,1.1626 17.3394,1.5126 C17.2184,1.7186 17.0654,1.9066 16.9494,2.1166 C16.7724,2.4346 16.6054,2.7626 16.5014,3.1196 C16.3934,3.4966 16.3044,3.8716 16.2264,4.2486 C16.1684,4.5446 16.1064,4.8366 16.0084,5.1206 C15.9084,5.4146 15.7684,5.6836 15.5884,5.9356 C15.3844,6.2216 15.1034,6.4456 14.9284,6.7546 C14.9234,6.7656 14.9124,6.7736 14.9034,6.7806 C14.7574,6.9006 14.6184,7.0256 14.4634,7.1336 C14.3584,7.2076 14.2764,7.3176 14.1254,7.3666 C14.1824,7.1506 14.2744,6.9636 14.3554,6.7736 C14.4134,6.6406 14.4824,6.5056 14.6144,6.4176 C14.6974,6.3646 14.7804,6.3076 14.8634,6.2536 C15.2744,5.9746 15.4434,5.5766 15.4394,5.0926 C15.4384,4.9866 15.4494,4.8776 15.3914,4.7776 C15.2554,4.5376 15.0824,4.3406 14.8264,4.2246 C14.7224,4.1806 14.6314,4.1836 14.5384,4.2306 C14.3294,4.3256 14.1304,4.4416 14.0064,4.6466 C13.9364,4.7646 13.8284,4.8636 13.7934,5.0026 C13.7484,5.1806 13.7174,5.3616 13.6894,5.5416 C13.6314,5.8926 13.7214,6.1846 14.0294,6.4016 C14.2114,6.5266 14.2204,6.5866 14.1424,6.7976 C14.0564,7.0276 13.9734,7.2566 13.8904,7.4846 C13.8824,7.5066 13.8664,7.5216 13.8534,7.5406 C13.3594,7.8266 12.9884,8.0516 12.9584,8.0926 C12.7404,8.2516 12.5204,8.4086 12.3014,8.5646 C12.0484,8.7876 11.7964,9.0076 11.5434,9.2306 C11.5384,9.2356 11.5334,9.2396 11.5284,9.2446 C11.4354,9.2156 11.4824,9.0616 11.4964,8.9746 C11.6544,7.9446 11.6624,6.8926 11.1124,6.1846 C11.0654,6.0246 11.2084,5.8656 11.1224,5.7016 C10.9664,5.6926 10.8954,5.8046 10.8524,5.9246 C10.7254,6.2786 10.5864,6.6326 10.6194,7.0216 C10.6404,7.6616 10.9574,8.5756 11.1674,8.9546 C11.2714,9.1426 11.3274,9.3066 11.2994,9.4766 C10.8774,9.8946 10.4424,10.3016 10.0954,10.7856 C10.0154,10.8096 9.9634,10.8696 9.9224,10.9466 C9.8774,10.9996 9.8314,11.0556 9.7884,11.1086 C9.7774,11.1176 9.7684,11.1266 9.7604,11.1376 C9.7074,11.1696 9.6554,11.2026 9.6014,11.2356 C9.5884,11.2136 9.5744,11.1856 9.5624,11.1626 C9.4404,11.3296 9.3074,11.4906 9.1704,11.6516 C9.0884,11.6086 9.0274,11.5056 9.0474,11.4086 C9.1214,11.0376 9.2664,10.6956 9.4124,10.3486 C9.3824,10.2326 9.3834,10.1096 9.4024,9.9806 C9.3294,9.7306 9.3644,9.4496 9.5784,9.2066 C9.5864,9.1936 9.5974,9.1836 9.6074,9.1706 C9.5744,8.9966 9.5894,8.8076 9.6754,8.6266 C10.3094,7.2866 10.6184,5.9696 10.6144,4.4846 C10.6134,4.2486 10.5914,4.0276 10.5574,3.8146 C10.4744,3.8776 10.4174,3.9686 10.3644,4.0626 C10.2894,4.1526 10.2464,4.2546 10.2564,4.3736 C9.9784,4.8836 9.7044,5.3906 9.4274,5.9046 C9.4114,5.9226 9.3974,5.9446 9.3914,5.9736 L9.3914,5.9746 L9.3914,5.9736 C9.2134,6.1566 9.1004,6.3696 9.0644,6.6216 C8.9664,6.7166 8.9724,6.8326 9.0034,6.9526 C8.9634,7.0826 8.6914,7.1956 8.9774,7.3476 C9.0164,7.3536 9.0544,7.3616 9.0914,7.3686 C9.0564,7.5926 8.7004,7.4906 8.7024,7.7526 C8.6434,7.8816 8.5854,8.0106 8.5264,8.1376 C8.4894,8.5566 8.2414,8.9326 8.2944,9.3696 C8.3094,9.4786 8.2874,9.5926 8.3644,9.6856 C8.3574,9.7696 8.3504,9.8556 8.3444,9.9426 C8.3604,10.5406 8.4514,11.1196 8.7544,11.6516 C8.7474,11.7426 8.7404,11.8316 8.7324,11.9236 C8.6804,12.0586 8.6274,12.1936 8.5754,12.3306 C8.3624,12.5826 8.2294,12.8916 8.0584,13.1766 C7.9224,13.5036 7.7144,13.7836 7.5674,14.1076 C7.5144,14.2256 7.3494,14.7956 7.1494,15.5216 C7.1284,15.4096 7.1084,15.2956 7.0884,15.1826 C7.1024,15.1526 7.1104,15.1266 7.1134,15.0956 C7.1714,14.8106 7.1804,14.5266 7.1164,14.2456 C7.1634,13.9406 7.1114,13.6396 7.0384,13.3416 C7.1214,13.0576 7.0384,12.7846 6.9924,12.5086 L6.9624,12.3796 C6.9484,12.2996 6.9224,12.2416 6.8804,12.2196 C6.9364,12.1366 6.9704,12.0456 6.9514,11.9466 C6.9134,11.8216 6.8744,11.6966 6.8354,11.5746 C6.6404,11.2576 6.4964,10.9336 6.3554,10.5846 C6.2834,10.4086 6.0384,9.7716 5.7704,9.5396 C5.6584,9.4916 5.5424,9.4806 5.4474,9.5476 C5.4444,9.5606 5.4444,9.5726 5.4434,9.5836 C5.4334,9.5836 5.4224,9.5816 5.4114,9.5816 C5.3884,9.6036 5.3654,9.6236 5.3464,9.6596 C5.2494,9.9576 5.1924,10.3216 5.1694,10.5166 C5.1664,10.5366 5.1644,10.5556 5.1614,10.5716 C5.1564,10.6696 5.1514,10.7606 5.1504,10.8516 C5.1514,10.8526 5.1544,10.8546 5.1544,10.8546 C5.1514,10.9766 5.1494,11.0936 5.1594,11.2116 C5.1704,11.3456 5.1814,11.4726 5.1904,11.5976 C5.1924,11.6646 5.1974,11.7326 5.1984,11.7986 C5.2244,11.9736 5.2494,12.1466 5.2754,12.3216 C5.2744,12.4696 5.3174,12.6016 5.4134,12.7146 C5.4504,12.7636 5.4864,12.8126 5.5234,12.8606 C5.4984,13.0706 5.6014,13.2306 5.7284,13.3816 L5.7304,13.3816 C5.9354,13.8876 6.0874,14.4256 6.5274,14.8026 C6.5654,14.8636 6.6034,14.9226 6.6404,14.9816 C6.6724,15.1396 6.9184,15.7216 7.0174,16.0096 C6.8354,16.6716 6.6424,17.4006 6.4784,18.0246 C6.4784,18.0246 6.4774,18.0256 6.4764,18.0276 C6.3884,17.8206 6.3444,17.6196 6.2914,17.4186 C6.2554,17.2786 6.2264,17.1296 6.2764,16.9836 C6.3074,16.8876 6.3394,16.7916 6.3704,16.6976 C6.5214,16.2246 6.4104,15.8076 6.1084,15.4296 C6.0404,15.3456 5.9824,15.2516 5.8764,15.2096 C5.6214,15.1046 5.3644,15.0566 5.0894,15.1236 C4.9814,15.1506 4.9124,15.2116 4.8664,15.3066 C4.7604,15.5086 4.6784,15.7256 4.7044,15.9586 C4.7224,16.0976 4.6994,16.2436 4.7564,16.3716 C4.8304,16.5376 4.9184,16.6996 5.0064,16.8606 C5.1794,17.1706 5.4294,17.3496 5.8044,17.3256 C6.0274,17.3126 6.0724,17.3556 6.1394,17.5686 C6.2134,17.8026 6.2894,18.0346 6.3644,18.2656 C6.3794,18.3146 6.3794,18.3596 6.3764,18.4066 L6.3874,18.3706 C6.2184,19.0116 6.0994,19.4746 6.0904,19.5146 C6.0904,19.5146 6.0894,19.5166 6.0894,19.5186 C5.9104,20.0566 5.8354,20.6096 5.8464,21.1766 C5.8154,21.2196 5.7874,21.2646 5.7594,21.3036 L5.7594,21.3056 C5.5394,21.0476 5.6324,20.6916 5.4714,20.4126 C5.4634,20.3646 5.4554,20.3106 5.4494,20.2596 C5.4164,20.1456 5.3824,20.0336 5.3494,19.9206 C5.3234,19.8646 5.2974,19.8066 5.2714,19.7506 C5.1814,19.3136 5.0874,18.8776 4.8554,18.4846 C4.7904,18.3466 4.7274,18.2096 4.6624,18.0686 C4.6584,18.0456 4.6474,18.0196 4.6324,18.0016 C4.4334,17.6146 4.4214,17.1356 4.0654,16.8246 C3.9604,16.6446 3.7854,16.5466 3.6344,16.4146 C3.4544,16.2546 3.2744,16.0926 3.0954,15.9306 C3.0664,15.8976 3.0384,15.8676 3.0114,15.8366 C2.8554,15.7156 2.8234,15.4456 2.5564,15.4596 C2.3894,15.5776 2.3574,15.7176 2.4794,15.8876 L2.4784,15.8876 C2.3774,16.2486 2.4954,16.5726 2.6284,16.8996 C2.7344,17.2286 2.8674,17.5416 3.1804,17.7366 C3.1864,17.7866 3.1924,17.8426 3.1984,17.8946 C3.1614,18.0796 3.1794,18.2406 3.3764,18.3296 C3.4184,18.6956 3.5884,19.0136 3.7524,19.3286 C3.7654,19.3536 3.7814,19.3796 3.7964,19.4026 C3.8484,19.7356 4.0484,19.9856 4.2584,20.2286 C4.3764,20.3776 4.4924,20.5246 4.6084,20.6686 C4.6354,20.6976 4.6624,20.7256 4.6904,20.7526 C4.7244,20.7976 4.7604,20.8426 4.7954,20.8896 C4.8304,20.9906 4.8794,21.0816 4.9724,21.1406 C5.1314,21.3316 5.1904,21.6026 5.4414,21.7146 L5.4444,21.7106 C5.4474,21.8656 5.4524,22.0176 5.5384,22.1546 L5.5384,22.1566 C5.5354,22.2626 5.4624,22.3696 5.5464,22.4726 C5.5744,22.8146 5.5774,23.8916 5.6754,24.1756 L5.6754,24.2646 C5.6604,24.3906 5.6584,24.5206 5.6634,24.6446 C5.5634,24.5336 5.4694,24.4146 5.3724,24.2936 C5.0824,23.9386 4.8054,23.5726 4.5354,23.2076 C4.0534,22.5476 3.5594,21.8986 3.0964,21.2256 C2.7314,20.6956 2.3864,20.1566 2.0724,19.5966 C1.9804,19.4286 1.8854,19.2636 1.7634,19.1156 C1.7754,19.1586 1.7924,19.1996 1.8154,19.2386 C2.0204,19.5966 2.2184,19.9576 2.4374,20.3086 C2.6874,20.7096 2.9494,21.1026 3.2214,21.4886 C3.5464,21.9386 3.8794,22.3826 4.2054,22.8306 C4.5174,23.2586 4.8254,23.6856 5.1584,24.0966 C5.1894,24.1356 5.2164,24.1776 5.2524,24.2246 C5.1994,24.2176 5.1844,24.1906 5.1644,24.1686 C4.7284,23.7046 4.2764,23.2646 3.8324,22.8086 C3.1824,22.1466 2.5454,21.4696 1.8874,20.8146 C1.6634,20.5926 1.4534,20.3556 1.2324,20.1316 C1.1314,20.0316 1.0244,19.9336 0.9164,19.8396 C1.5574,20.5826 2.2684,21.2606 2.9494,21.9666 C3.6284,22.6726 4.3184,23.3686 5.0044,24.0706 C3.4494,22.8556 1.9214,21.6086 0.1704,20.6646 C0.1884,20.7156 0.2274,20.7326 0.2614,20.7566 C0.4904,20.9166 0.7374,21.0476 0.9744,21.1936 C1.4424,21.4816 1.8944,21.7956 2.3464,22.1086 C2.7074,22.3586 3.0584,22.6236 3.3994,22.9026 C3.8854,23.3086 4.4034,23.6756 4.8904,24.0816 C5.1404,24.2936 5.4174,24.4796 5.6104,24.7536 C5.6284,24.7786 5.6524,24.8036 5.6814,24.7976 C5.6894,24.8756 5.6964,24.9536 5.7074,25.0306 C5.7214,25.2576 5.7334,25.4826 5.7474,25.7096 C5.7604,26.0236 5.7734,26.3366 5.7864,26.6506 C5.7894,26.7076 5.9544,27.2426 5.9564,27.3016 C5.9294,27.3586 5.8544,27.0756 5.8284,27.1376 L5.6984,27.0056 C5.6414,26.9216 5.5814,26.8376 5.5244,26.7536 C5.3124,26.4566 5.1124,26.1486 4.8114,25.9286 C4.5534,25.6426 4.3194,25.3326 4.0044,25.1016 C3.5594,24.6946 3.2024,24.1956 2.7194,23.8246 C2.6054,23.7136 2.4904,23.5986 2.3764,23.4846 C2.3444,23.4376 2.3164,23.3896 2.2814,23.3426 C2.2044,23.2486 2.1424,23.0956 1.9884,23.1466 C1.8224,23.2006 1.8364,23.3636 1.8484,23.5106 C1.8694,23.7796 1.9274,24.0416 2.0664,24.2796 C2.2084,25.0286 2.7024,25.5686 3.1804,26.1136 C3.2434,26.2476 3.3364,26.3556 3.4674,26.4256 C3.4954,26.4566 3.5214,26.4846 3.5474,26.5146 C3.7274,26.7796 4.0024,26.9196 4.2684,27.0706 C4.3214,27.1606 4.3974,27.2176 4.4974,27.2386 C4.6064,27.3516 4.7424,27.4146 4.8864,27.4626 C4.9094,27.4726 4.9324,27.4786 4.9554,27.4816 C4.9634,27.5056 4.9744,27.5246 4.9904,27.5436 C5.0494,27.6346 5.1404,27.6806 5.2444,27.7026 C5.3024,27.7226 5.3634,27.7446 5.4234,27.7676 C5.6844,27.9016 5.9444,28.0356 6.2054,28.1686 C6.2644,28.2546 6.3244,28.3406 6.3824,28.4276 C6.5724,28.5986 6.6434,28.8416 6.7414,29.0646 C6.7384,29.0676 6.7354,29.0716 6.7334,29.0766 C6.7174,29.0986 6.7124,29.1116 6.7324,29.1376 C6.7884,29.2166 6.8444,29.2976 6.8934,29.3786 C6.9064,29.4726 6.9384,29.5566 6.9864,29.6336 C6.9964,29.6626 7.0054,29.6906 7.0114,29.7206 C7.0194,29.7556 7.0244,29.7986 7.0134,29.8326 C6.9984,29.8876 6.9524,29.9236 6.9014,29.9446 C6.8294,29.9756 6.8294,29.9706 6.8024,29.8926 C6.7854,29.8366 6.7594,29.7796 6.7324,29.7236 C6.7004,29.6626 6.6704,29.5976 6.6294,29.5446 C6.5884,29.4946 6.5364,29.4506 6.4804,29.4246 C6.4544,29.4106 6.4064,29.4436 6.3694,29.4556 C6.3534,29.4596 6.3424,29.4776 6.3274,29.4866 C6.2874,29.5066 6.2474,29.5186 6.2014,29.4886 C6.0824,29.4196 5.9594,29.3546 5.8414,29.2856 C5.7994,29.2626 5.7474,29.2426 5.7434,29.1786 C5.7424,29.1656 5.7064,29.1436 5.6864,29.1436 C5.6604,29.1396 5.6304,29.1486 5.6024,29.1586 C5.5124,29.1806 5.4994,29.1616 5.4374,29.0826 C5.3794,29.0106 5.3204,28.9366 5.2484,28.8776 C5.1604,28.8036 5.0604,28.8326 5.0114,28.9426 C5.0014,28.9666 4.9964,28.9886 4.9854,29.0106 C4.9794,29.0236 4.9644,29.0366 4.9504,29.0386 C4.8724,29.0646 4.8434,29.0536 4.7934,28.9866 C4.7454,28.9226 4.6734,28.9006 4.5994,28.8856 C4.5614,28.8776 4.4994,28.9266 4.4784,28.9686 C4.4684,28.9906 4.4554,29.0126 4.4414,29.0366 C4.4214,29.0666 4.3994,29.0666 4.3684,29.0516 C4.3494,29.0406 4.3244,29.0366 4.3014,29.0366 C4.2384,29.0386 4.1694,29.0366 4.1084,29.0496 C4.0264,29.0676 3.9484,29.1026 3.8684,29.1316 C3.8284,29.1436 3.7874,29.1566 3.7504,29.1746 C3.7394,29.1786 3.7254,29.1966 3.7254,29.2116 C3.7154,29.2906 3.6784,29.3496 3.6174,29.4046 C3.5744,29.4406 3.5454,29.4926 3.5124,29.5406 C3.5074,29.5446 3.5084,29.5586 3.5104,29.5686 C3.5354,29.6456 3.5004,29.6986 3.4384,29.7336 C3.3744,29.7746 3.3474,29.8906 3.3714,29.9356 C3.4004,29.9816 3.4384,30.0246 3.4764,30.0626 C3.5014,30.0886 3.5374,30.1036 3.5664,30.1256 C3.6184,30.1626 3.6274,30.1906 3.6124,30.2486 C3.5914,30.3246 3.6014,30.3486 3.6694,30.3896 C3.6744,30.3926 3.6824,30.3986 3.6834,30.4016 C3.6874,30.4616 3.7394,30.4566 3.7734,30.4636 C3.8534,30.4736 3.9104,30.5286 3.9714,30.5696 C3.9804,30.5766 3.9804,30.5946 3.9824,30.6076 C3.9884,30.6446 3.9874,30.6856 3.9984,30.7196 C4.0154,30.7696 4.0614,30.7896 4.1174,30.7806 C4.1764,30.7696 4.2334,30.7576 4.2914,30.7486 C4.3084,30.7446 4.3264,30.7466 4.3424,30.7506 C4.3994,30.7636 4.4214,30.7976 4.4274,30.8546 C4.4314,30.9056 4.4734,30.9336 4.5244,30.9276 C4.5574,30.9226 4.5894,30.9186 4.6204,30.9076 C4.7084,30.8816 4.7884,30.9026 4.8584,30.9586 C4.9224,31.0136 4.9914,31.0366 5.0714,31.0046 C5.1234,30.9836 5.1764,30.9586 5.2314,30.9466 C5.2994,30.9316 5.3694,30.9186 5.4374,30.9096 C5.4544,30.9076 5.4754,30.9256 5.4924,30.9336 C5.5354,30.9536 5.5744,30.9776 5.6174,30.9936 C5.7254,31.0326 5.8234,30.9916 5.9134,30.9376 C5.9884,30.8896 6.0574,30.8336 6.1524,30.8286 C6.1734,30.8286 6.1994,30.8356 6.2214,30.8376 C6.2714,30.8446 6.3104,30.8186 6.3464,30.7896 C6.4624,30.6986 6.5764,30.6026 6.6944,30.5116 C6.7854,30.4466 6.8134,30.3526 6.8304,30.2506 C6.8314,30.2486 6.8294,30.2406 6.8294,30.2356 C6.8284,30.2306 6.8254,30.2236 6.8194,30.2096 C6.7594,30.2136 6.6994,30.2176 6.6394,30.2196 C6.5864,30.2226 6.5354,30.2196 6.4824,30.2196 C6.3884,30.2176 6.2954,30.2226 6.2014,30.2196 C6.1684,30.2196 6.1384,30.2116 6.1064,30.2096 C6.0424,30.2066 5.9774,30.2066 5.9134,30.2046 C5.8474,30.1996 5.7804,30.1946 5.7134,30.1926 C5.6804,30.1906 5.6414,30.1996 5.6154,30.1876 C5.5524,30.1566 5.4874,30.1786 5.4234,30.1626 C5.3744,30.1516 5.3224,30.1666 5.2734,30.1566 C5.1264,30.1286 4.9814,30.0986 4.8324,30.0726 C4.7964,30.0606 4.7574,30.0586 4.7204,30.0486 C4.6994,30.0466 4.6794,30.0356 4.6574,30.0286 C4.6604,30.0196 4.6604,30.0156 4.6604,30.0076 C4.6884,30.0056 4.7174,30.0016 4.7464,30.0056 C4.8434,30.0156 4.9424,30.0316 5.0394,30.0466 C5.1774,30.0656 5.3134,30.0866 5.4514,30.1006 C5.5544,30.1126 5.6604,30.1126 5.7644,30.1176 C5.8144,30.1216 5.8654,30.1306 5.9144,30.1306 C5.9794,30.1306 6.0434,30.1236 6.1074,30.1216 C6.1324,30.1216 6.1594,30.1286 6.1834,30.1346 C6.1934,30.1346 6.2024,30.1406 6.2104,30.1406 C6.2764,30.1446 6.3394,30.1496 6.4044,30.1516 C6.4584,30.1516 6.5144,30.1466 6.5674,30.1496 C6.6894,30.1516 6.8094,30.1376 6.9264,30.1066 C6.9794,30.0946 7.0324,30.0726 7.0824,30.0536 C7.0934,30.0466 7.1034,30.0356 7.1134,30.0266 C7.1324,30.0036 7.1644,30.0036 7.1814,30.0286 C7.2134,30.1326 7.2634,30.2306 7.3194,30.3246 L7.3194,30.3276 C7.3254,30.3646 7.3174,30.4086 7.3064,30.4486 C7.2914,30.5056 7.2724,30.5626 7.2504,30.6166 C7.2484,30.6276 7.2384,30.6366 7.2294,30.6406 C7.1874,30.6466 7.1454,30.6606 7.1014,30.6626 C7.0304,30.6666 6.9574,30.6706 6.8864,30.6606 C6.8404,30.6506 6.7934,30.6236 6.7544,30.5926 C6.7244,30.5736 6.6944,30.5646 6.6664,30.5816 C6.6484,30.5926 6.6364,30.6166 6.6254,30.6406 C6.6094,30.6776 6.5974,30.7176 6.5784,30.7526 C6.5704,30.7676 6.5494,30.7806 6.5334,30.7826 C6.4774,30.7956 6.4194,30.7956 6.3634,30.8086 C6.3514,30.8086 6.3364,30.8186 6.3294,30.8286 C6.3004,30.8686 6.2714,30.9026 6.2734,30.9606 C6.2764,31.0976 6.1784,31.1746 6.0734,31.2366 C6.0314,31.2636 5.9844,31.2796 5.9464,31.3076 C5.9174,31.3296 5.8874,31.3566 5.8734,31.3886 C5.8594,31.4186 5.8594,31.4566 5.8654,31.4886 C5.8734,31.5456 5.8924,31.5996 5.9094,31.6546 C5.9204,31.6936 5.9094,31.7226 5.8744,31.7396 C5.7854,31.7926 5.6904,31.8436 5.6044,31.9006 C5.5784,31.9206 5.5604,31.9586 5.5544,31.9916 C5.5514,32.0226 5.5534,32.0596 5.6024,32.0706 C5.6394,32.0816 5.6754,32.1016 5.7094,32.1166 C5.7384,32.1316 5.7424,32.1586 5.7344,32.1866 C5.7144,32.2656 5.6854,32.3376 5.6214,32.3906 C5.5464,32.4586 5.5184,32.5536 5.4994,32.6426 C5.4894,32.6996 5.5124,32.7576 5.5514,32.8036 C5.6274,32.8826 5.6354,32.9736 5.6064,33.0766 C5.5874,33.1406 5.5804,33.2116 5.5764,33.2806 C5.5694,33.3456 5.6414,33.4446 5.7024,33.4746 C5.7434,33.4946 5.7884,33.5176 5.8234,33.5506 C5.8504,33.5776 5.8684,33.6156 5.8804,33.6506 C5.9114,33.7406 5.9334,33.8346 5.9614,33.9226 C5.9714,33.9526 6.0224,33.9726 6.0624,33.9726 C6.1584,33.9706 6.2214,33.9116 6.2834,33.8486 C6.3604,33.7676 6.3824,33.7646 6.4754,33.8276 C6.5564,33.8816 6.6214,33.8716 6.6764,33.7866 C6.7044,33.7446 6.7334,33.7026 6.7914,33.7076 C6.8294,33.7096 6.8654,33.7296 6.9034,33.7266 C6.9554,33.7266 7.0084,33.7226 7.0564,33.7076 C7.1164,33.6856 7.1364,33.5906 7.1284,33.5216 C7.1194,33.4226 7.1034,33.3216 7.1424,33.2236 C7.1624,33.1776 7.1944,33.1326 7.2264,33.0916 C7.2574,33.0506 7.3064,33.0586 7.3334,33.0866 C7.3734,33.1326 7.4074,33.1096 7.4554,33.0986 C7.4484,33.0566 7.4374,33.0146 7.4314,32.9716 C7.4134,32.8446 7.4124,32.7176 7.4594,32.5976 C7.4744,32.5566 7.4974,32.5176 7.5244,32.4846 C7.5714,32.4266 7.6414,32.4496 7.7034,32.4456 C7.7254,32.4406 7.7474,32.4456 7.7694,32.4426 C7.8314,32.4306 7.8294,32.4196 7.8104,32.3556 C7.7864,32.2746 7.7764,32.1886 7.7664,32.1036 C7.7584,32.0386 7.7634,31.9726 7.7614,31.9066 C7.7574,31.8206 7.7684,31.7396 7.8324,31.6766 C7.8654,31.6436 7.8954,31.6126 7.9224,31.5776 C7.9544,31.5366 7.9514,31.5146 7.9084,31.4876 C7.8574,31.4566 7.8144,31.4226 7.8084,31.3536 C7.8054,31.3126 7.7774,31.2716 7.7624,31.2316 C7.7584,31.2196 7.7584,31.2056 7.7614,31.1936 C7.7644,31.1546 7.7744,31.1166 7.7744,31.0806 L10.6494,34.7596 C10.8404,34.9806 11.0414,35.1906 11.2484,35.3896 C11.0684,35.4016 10.9094,35.2616 10.7294,35.2616 L10.5434,35.1696 L10.5414,35.1696 C10.4004,35.0746 10.2474,35.0316 10.0774,35.0636 C9.6374,34.5166 8.2134,34.1466 7.5214,34.3856 C7.3394,34.4476 7.3184,34.5336 7.3714,34.6996 C7.5014,35.1076 7.8224,35.3226 8.1674,35.5136 C8.2514,35.5486 8.3394,35.5826 8.4234,35.6206 C8.7224,35.7646 9.0554,35.6896 9.3644,35.7676 C9.6904,35.7736 10.0164,35.7836 10.3424,35.7916 C10.6264,35.7716 10.9134,35.8606 11.1964,35.7696 C11.3734,35.6856 11.5124,35.6896 11.6344,35.7406 C11.7974,35.8836 11.9614,36.0196 12.1314,36.1536 L12.1324,36.1536 L12.1314,36.1536 C12.2274,36.2306 12.3194,36.3066 12.4154,36.3786 C12.4504,36.4526 12.4824,36.5276 12.5164,36.6056 C12.3294,36.6216 12.1454,36.6406 11.9594,36.6596 C11.5524,36.6176 11.1454,36.6426 10.7404,36.6846 C10.6574,36.6876 10.5754,36.6896 10.4914,36.6936 C10.4134,36.6976 10.3344,36.7046 10.2574,36.7116 C10.0744,36.6216 9.8884,36.6546 9.7024,36.6956 C9.6634,36.6976 9.6264,36.7046 9.5864,36.7096 C9.4674,36.7156 9.3494,36.7236 9.2284,36.7306 C8.9424,36.7066 8.6624,36.7556 8.3844,36.8206 C7.9064,36.8656 7.4304,36.9316 6.9934,37.1426 C6.8244,37.2256 6.5594,37.3166 6.8714,37.5566 C7.1084,37.6666 7.3574,37.7526 7.6214,37.7676 C8.1664,37.8146 8.7114,37.8946 9.2564,37.7626 C9.3524,37.7426 9.4494,37.7226 9.5454,37.7056 C9.6434,37.6806 9.7384,37.6566 9.8344,37.6316 C9.9954,37.6386 10.1304,37.5706 10.2634,37.4986 C10.8294,37.4196 11.3114,37.1046 11.8434,36.9316 C12.1244,36.9136 12.4064,36.8966 12.6864,36.8786 C12.9074,36.9186 13.0964,36.9366 13.2874,36.9846 C14.0874,37.5046 14.9244,37.9806 15.7574,38.4676 C15.9404,38.5726 16.2764,38.6956 16.3984,38.8306 C16.7954,38.9716 16.8204,39.1566 17.1784,39.3816 C17.4094,39.5236 17.8074,39.7176 18.0684,39.8286 C18.2684,39.8676 18.4664,39.9146 18.6654,39.9676 C18.7884,39.9986 18.8824,40.0606 18.9634,40.1376 L18.9544,40.1376 C18.8184,40.1486 18.6834,40.1546 18.5504,40.1626 C18.0934,40.1876 17.6344,40.1996 17.1784,40.1996 C16.3614,40.2016 15.5464,40.2176 14.7304,40.1976 C14.0874,40.1806 13.4474,40.1406 12.8074,40.0626 C12.6194,40.0416 12.4294,40.0216 12.2394,40.0316 C12.2814,40.0476 12.3254,40.0566 12.3694,40.0626 C12.7774,40.1056 13.1874,40.1626 13.5974,40.1876 C14.0694,40.2236 14.5434,40.2446 15.0154,40.2486 C15.5714,40.2566 16.1254,40.2446 16.6804,40.2446 C17.2084,40.2466 17.7374,40.2466 18.2634,40.2196 C18.3134,40.2176 18.3624,40.2196 18.4244,40.2216 C18.3864,40.2606 18.3544,40.2566 18.3264,40.2606 C17.6954,40.3366 17.0714,40.4416 16.4424,40.5336 C15.5234,40.6686 14.6024,40.7876 13.6874,40.9316 C13.3734,40.9826 13.0594,41.0156 12.7464,41.0626 C12.6064,41.0826 12.4654,41.1096 12.3254,41.1446 C13.3034,41.0626 14.2694,40.8876 15.2414,40.7526 C16.2114,40.6196 17.1814,40.4716 18.1524,40.3286 C17.8774,40.4066 17.6054,40.4826 17.3304,40.5606 C17.2744,40.5726 17.2184,40.5846 17.1604,40.5946 C16.3044,40.7216 15.4774,40.9636 14.6444,41.1836 C14.1784,41.3036 13.7214,41.4456 13.2624,41.5926 C12.5984,41.7976 11.9594,42.0666 11.3094,42.3086 C11.1094,42.3856 10.9074,42.4656 10.6984,42.5826 C10.8014,42.5926 10.8714,42.5566 10.9384,42.5236 C11.0764,42.4556 11.2194,42.4046 11.3634,42.3556 C11.8884,42.1686 12.3994,41.9416 12.9314,41.7696 C13.5234,41.5726 14.1154,41.3816 14.7154,41.2236 C15.2914,41.0686 15.8634,40.9006 16.4464,40.7756 C16.5744,40.7506 16.7024,40.7266 16.8304,40.7056 C15.3764,41.1236 13.9314,41.5706 12.5544,42.2346 C12.6044,42.2486 12.6424,42.2246 12.6804,42.2136 C12.9444,42.1216 13.1964,42.0006 13.4544,41.8946 C13.9624,41.6836 14.4824,41.5046 15.0004,41.3206 C15.4154,41.1806 15.8354,41.0496 16.2624,40.9396 C16.6524,40.8406 17.0344,40.7266 17.4204,40.6156 C17.3544,40.6666 17.2754,40.6896 17.1964,40.7076 C16.7864,40.8036 16.3994,40.9656 16.0144,41.1356 C15.6184,41.3086 15.2284,41.4986 14.8334,41.6766 C14.3794,41.8856 13.9324,42.1136 13.4964,42.3576 C12.9674,42.6466 12.4404,42.9376 11.9144,43.2306 C11.6644,43.3676 11.4184,43.5086 11.1704,43.6486 C11.1574,43.6546 11.1444,43.6686 11.1304,43.6766 C11.2134,43.6816 11.2804,43.6406 11.3444,43.6036 C12.1614,43.1606 12.9774,42.7246 13.7874,42.2756 C14.4754,41.8946 15.1944,41.5806 15.9044,41.2486 C16.5504,40.9416 17.2244,40.7306 17.9174,40.5606 C18.2244,40.4886 18.5254,40.3946 18.8334,40.3346 C18.9164,40.3226 18.9944,40.2836 19.0734,40.2586 L19.0794,40.2526 C19.1714,40.2506 19.2634,40.2486 19.3554,40.2466 L19.8014,40.3696 L19.8054,40.3716 C20.3954,40.5996 21.0074,40.7156 21.6384,40.7366 C21.6844,40.7736 21.7304,40.8066 21.7764,40.8406 C21.4774,41.0706 21.0844,40.9496 20.7664,41.1096 C20.7094,41.1176 20.6514,41.1216 20.5944,41.1276 C20.4674,41.1566 20.3404,41.1856 20.2114,41.2176 L20.0174,41.2936 C19.5254,41.3716 19.0344,41.4476 18.5864,41.6836 C18.4274,41.7486 18.2684,41.8126 18.1114,41.8776 C18.0824,41.8816 18.0574,41.8896 18.0324,41.9066 C17.5914,42.1056 17.0574,42.0886 16.6914,42.4696 C16.6134,42.5496 16.6304,42.6316 16.6964,42.7056 C16.7844,42.7896 16.8964,42.7716 17.0014,42.7756 C17.0254,42.7756 17.0484,42.7676 17.0714,42.7656 C17.0674,42.7776 17.0614,42.7876 17.0574,42.7956 C17.2574,42.7816 17.4594,42.7676 17.6604,42.7626 C17.6754,42.7626 17.6904,42.7606 17.7054,42.7606 C17.9004,42.7526 18.0944,42.7466 18.2894,42.7366 C18.6814,42.6976 19.0704,42.6376 19.4534,42.5586 L19.4534,42.5606 C19.4854,42.5566 19.5144,42.5476 19.5434,42.5416 C19.5644,42.5376 19.5834,42.5356 19.6024,42.5296 C20.0214,42.4356 20.4364,42.3266 20.8464,42.1956 L21.0014,42.0846 C21.0344,42.0586 21.0664,42.0276 21.0984,42.0026 C21.1524,41.9616 21.2054,41.9286 21.2584,41.8896 C21.3714,41.8556 21.4774,41.8066 21.5484,41.7056 C21.7684,41.5396 22.0734,41.4906 22.2144,41.2176 L22.2084,41.2136 C22.3814,41.2196 22.5524,41.2246 22.7094,41.1396 C22.7104,41.1356 22.7114,41.1396 22.7124,41.1356 C22.8284,41.1466 22.9434,41.2326 23.0644,41.1466 C23.4474,41.1336 23.8324,41.1196 24.2154,41.1076 C24.5494,41.2526 24.2944,41.3776 24.1854,41.4596 C23.8264,41.7286 23.5794,42.0846 23.3344,42.4456 C23.1474,42.6766 22.8704,42.8496 22.8564,43.1916 C22.7244,43.2446 22.6694,43.3466 22.6654,43.4806 C22.5284,43.6316 22.3374,43.7486 22.3124,43.9786 C22.2244,44.1446 21.9854,44.1586 21.9274,44.3536 C22.0454,44.4826 22.1874,44.4496 22.3144,44.3896 C22.6924,44.2076 23.0784,44.0376 23.3564,43.6996 C23.7334,43.6856 23.9754,43.5156 24.0344,43.1256 C24.3564,42.7196 24.3014,42.1956 24.4294,41.7346 C24.5204,41.4046 24.6434,41.1916 24.9654,41.0996 C24.9984,41.1016 25.0324,41.1036 25.0664,41.1036 C25.3494,41.1566 25.6354,41.1446 25.9214,41.1136 C26.1734,41.1116 26.4264,41.1096 26.6784,41.1076 C27.0294,41.1116 27.3794,41.1546 27.7284,41.1196 C28.1164,41.0826 28.9824,40.8106 29.0454,40.8086 C29.1124,40.8446 28.3324,41.1396 28.1154,41.2176 L28.1194,41.2386 C28.0224,41.2976 27.9254,41.3576 27.8274,41.4166 C27.4854,41.6356 27.1314,41.8406 26.8684,42.1646 C26.5344,42.4336 26.1764,42.6766 25.9024,43.0146 C25.4224,43.4846 24.8494,43.8536 24.4094,44.3696 L24.0074,44.7326 C23.9524,44.7656 23.8964,44.7956 23.8454,44.8286 C23.7344,44.9106 23.5604,44.9716 23.6084,45.1426 C23.6614,45.3326 23.8444,45.3286 24.0044,45.3206 C24.3074,45.3146 24.6014,45.2646 24.8744,45.1236 C25.7174,45.0086 26.3444,44.4906 26.9804,43.9886 C27.1324,43.9266 27.2574,43.8306 27.3444,43.6856 C27.3794,43.6606 27.4144,43.6316 27.4504,43.6016 C27.7524,43.4186 27.9244,43.1216 28.1094,42.8326 C28.2104,42.7816 28.2794,42.6976 28.3104,42.5886 C28.4434,42.4736 28.5194,42.3246 28.5804,42.1666 C28.5944,42.1426 28.6034,42.1196 28.6084,42.0926 C28.6334,42.0846 28.6574,42.0726 28.6774,42.0586 C28.7834,41.9946 28.8354,41.8966 28.8684,41.7856 C28.8964,41.7176 28.9224,41.6526 28.9494,41.5886 C29.1134,41.3036 29.2784,41.0236 29.4424,40.7406 C29.5404,40.6806 29.6394,40.6196 29.7394,40.5566 C30.0264,40.2736 30.4454,40.2626 30.7674,40.0536 C30.8084,40.0536 30.8454,40.0456 30.8824,40.0396 C30.8394,40.0646 30.8234,40.0746 30.8804,40.0436 C30.8804,40.0436 30.8884,40.0396 30.8914,40.0396 C31.0224,40.0146 31.1374,39.9556 31.2414,39.8736 C31.5654,39.7176 32.0384,39.4866 32.3654,39.3016 C32.2824,39.3926 32.2094,39.4696 32.2014,39.4846 C32.1364,39.6156 32.0614,39.7406 31.9404,39.8286 C31.8294,39.9106 31.7054,39.9676 31.5794,40.0236 C31.5124,40.0516 31.4474,40.0996 31.4454,40.1996 C31.4434,40.3306 31.4034,40.4596 31.3374,40.5746 C31.2914,40.6466 31.2314,40.7116 31.1714,40.7756 C31.1074,40.8406 31.0334,40.8986 30.9654,40.9616 C30.8914,41.0316 30.9194,41.1856 31.0164,41.2386 C31.0324,41.2486 31.0514,41.2606 31.0714,41.2646 C31.1414,41.2716 31.1514,41.3246 31.1434,41.3756 C31.1344,41.4316 31.1114,41.4886 31.0814,41.5396 C30.9984,41.6896 30.9314,41.8426 30.9314,42.0156 C30.9314,42.0746 30.9604,42.1426 30.9964,42.1936 C31.0204,42.2236 31.0774,42.2406 31.1214,42.2486 C31.1744,42.2586 31.2024,42.2856 31.2214,42.3246 C31.2754,42.4496 31.3044,42.5826 31.3034,42.7176 C31.3024,42.7756 31.2704,42.8246 31.2464,42.8986 C31.2594,42.9496 31.3194,42.9676 31.3904,42.9166 C31.4764,42.8516 31.4914,42.8536 31.5564,42.9376 C31.6324,43.0316 31.7084,43.1216 31.7894,43.2196 C31.8254,43.1816 31.8604,43.1606 31.8784,43.1236 C31.9434,43.0146 32.0534,42.9616 32.1574,42.9046 C32.1634,42.8986 32.1714,42.8946 32.1774,42.8906 C32.2404,42.8486 32.2694,42.8496 32.3274,42.8986 C32.3824,42.9456 32.4214,42.9476 32.4534,42.9086 C32.4594,42.8986 32.4634,42.8896 32.4664,42.8816 C32.4824,42.8266 32.4924,42.7676 32.5124,42.7136 C32.5634,42.5826 32.6184,42.4516 32.6684,42.3186 C32.6834,42.2856 32.7024,42.2656 32.7494,42.2756 C32.8844,42.2956 32.8984,42.2246 32.8814,42.1276 C32.8724,42.0686 32.8514,42.0156 32.8454,41.9596 C32.8414,41.9306 32.8464,41.8816 32.8674,41.8676 C32.8884,41.8536 32.9314,41.8676 32.9654,41.8736 C33.0034,41.8796 33.0424,41.8966 33.0804,41.8946 C33.1374,41.8876 33.1834,41.7756 33.1594,41.7056 C33.1444,41.6526 33.1184,41.6036 33.1044,41.5516 C33.0824,41.4416 33.0624,41.3326 33.0484,41.2246 C33.0404,41.1626 33.1114,41.0986 33.1804,41.1016 C33.2594,41.1076 33.3234,41.0806 33.3844,41.0356 C33.4174,41.0146 33.4434,40.9336 33.4224,40.8876 C33.3984,40.8266 33.3714,40.7656 33.3354,40.7136 C33.2664,40.6156 33.1844,40.5256 33.1184,40.4266 C33.0794,40.3696 33.0644,40.2996 33.0374,40.2366 C33.0364,40.2286 33.0464,40.2156 33.0544,40.2056 C33.0924,40.1666 33.0944,40.1176 33.1014,40.0646 C33.1034,40.0516 33.0914,40.0236 33.0774,40.0156 C32.9964,39.9746 32.9124,39.9316 32.8254,39.9026 C32.7694,39.8836 32.7054,39.8876 32.6504,39.8636 C32.6144,39.8486 32.5884,39.8066 32.5554,39.7796 C32.5254,39.7586 32.4924,39.7366 32.4464,39.7016 C32.1754,40.2936 32.0364,40.8986 31.9514,41.5216 C31.9464,41.5216 31.9404,41.5216 31.9344,41.5196 C31.9334,41.5006 31.9304,41.4786 31.9324,41.4576 C31.9504,41.3166 31.9684,41.1766 31.9864,41.0356 C31.9994,40.9316 32.0064,40.8266 32.0264,40.7216 C32.0424,40.6216 32.0704,40.5216 32.0934,40.4206 C32.1144,40.3286 32.1234,40.2366 32.1544,40.1486 C32.2054,40.0006 32.2654,39.8516 32.3314,39.7116 C32.4094,39.5476 32.7304,39.0766 32.8714,38.9456 L34.6204,38.0236 C34.8694,37.7676 35.1364,37.5276 35.4574,37.3546 C35.5604,37.3016 35.6184,37.2016 35.7014,37.1236 C35.8304,37.0026 35.9804,36.9116 36.1314,36.8206 C36.1724,36.7976 36.2224,36.7676 36.2074,36.7136 C36.1924,36.6546 36.1264,36.6666 36.0824,36.6576 C36.0504,36.6546 36.0104,36.6666 35.9804,36.6826 C35.7184,36.8096 35.4454,36.9206 35.2024,37.0796 C35.0464,37.1806 34.9144,37.3316 34.7664,37.4516 C34.5684,37.6136 34.3674,37.7696 34.1684,37.9286 C34.0374,38.0336 33.9054,38.1376 33.7844,38.2526 C33.7104,38.3246 33.6254,38.3756 33.5384,38.4206 C33.4184,38.4846 33.2974,38.5416 33.1774,38.6036 C33.1804,38.6016 33.1804,38.6016 33.1834,38.5946 L33.1714,38.6076 C33.1564,38.6136 33.1394,38.6256 33.1234,38.6336 C33.0594,38.6466 32.8584,38.6016 32.8174,38.5806 C32.7524,38.5496 32.7564,38.5496 32.7914,38.4846 C32.8184,38.4376 32.8404,38.3896 32.8604,38.3366 C32.8814,38.2816 32.9084,38.2216 32.9174,38.1606 C32.9254,38.1036 32.9234,38.0416 32.9094,37.9906 C32.9034,37.9636 32.8524,37.9516 32.8214,37.9336 C32.8084,37.9266 32.7884,37.9306 32.7764,37.9266 C32.7384,37.9106 32.7064,37.8896 32.6974,37.8466 C32.6724,37.7226 32.6414,37.6026 32.6164,37.4816 C32.6064,37.4386 32.5884,37.3946 32.6284,37.3546 C32.6364,37.3446 32.6284,37.3066 32.6184,37.2926 C32.6044,37.2716 32.5784,37.2596 32.5574,37.2456 C32.4894,37.1996 32.4934,37.1786 32.5064,37.0926 C32.5204,37.0096 32.5344,36.9266 32.5324,36.8446 C32.5284,36.7386 32.4474,36.6916 32.3454,36.7236 C32.3254,36.7306 32.3044,36.7426 32.2834,36.7486 C32.2724,36.7506 32.2544,36.7486 32.2444,36.7416 C32.1824,36.7046 32.1694,36.6796 32.1844,36.6076 C32.1984,36.5346 32.1694,36.4736 32.1364,36.4166 C32.1174,36.3856 32.0474,36.3716 32.0064,36.3876 C31.9864,36.3906 31.9624,36.3986 31.9404,36.4006 C31.9094,36.4076 31.8944,36.3906 31.8864,36.3616 C31.8804,36.3456 31.8684,36.3256 31.8544,36.3106 C31.8154,36.2686 31.7794,36.2226 31.7314,36.1876 C31.6694,36.1446 31.5984,36.1136 31.5324,36.0786 C31.4994,36.0586 31.4674,36.0396 31.4344,36.0236 C31.4234,36.0186 31.4034,36.0216 31.3934,36.0306 C31.3334,36.0716 31.2704,36.0846 31.2004,36.0756 C31.1504,36.0696 31.0974,36.0826 31.0454,36.0866 C31.0394,36.0886 31.0324,36.0976 31.0274,36.1036 C30.9914,36.1666 30.9344,36.1756 30.8704,36.1556 C30.8064,36.1396 30.7134,36.1896 30.7014,36.2326 C30.6864,36.2776 30.6804,36.3306 30.6774,36.3786 C30.6754,36.4116 30.6854,36.4436 30.6894,36.4786 C30.6974,36.5296 30.6834,36.5566 30.6354,36.5796 C30.5744,36.6136 30.5634,36.6326 30.5764,36.7046 C30.5764,36.7096 30.5784,36.7176 30.5764,36.7196 C30.5394,36.7576 30.5744,36.7886 30.5904,36.8146 C30.6304,36.8756 30.6284,36.9436 30.6384,37.0126 C30.6404,37.0216 30.6274,37.0336 30.6194,37.0406 C30.5994,37.0686 30.5734,37.0926 30.5544,37.1216 C30.5324,37.1636 30.5474,37.2046 30.5874,37.2366 C30.6274,37.2696 30.6714,37.2996 30.7134,37.3336 C30.7244,37.3406 30.7344,37.3546 30.7414,37.3676 C30.7674,37.4106 30.7574,37.4476 30.7244,37.4886 C30.6924,37.5196 30.6994,37.5656 30.7364,37.5966 C30.7564,37.6136 30.7794,37.6316 30.8034,37.6486 C30.8744,37.6896 30.9084,37.7566 30.9114,37.8346 C30.9164,37.9106 30.9424,37.9696 31.0124,38.0046 C31.0574,38.0276 31.1054,38.0476 31.1464,38.0766 C31.1984,38.1096 31.2464,38.1506 31.2944,38.1896 C31.3054,38.2016 31.3074,38.2246 31.3114,38.2426 C31.3244,38.2816 31.3314,38.3206 31.3474,38.3596 C31.3864,38.4576 31.4714,38.4966 31.5634,38.5236 C31.6384,38.5436 31.7194,38.5566 31.7794,38.6156 C31.7934,38.6316 31.8014,38.6506 31.8154,38.6686 C31.8414,38.7056 31.8794,38.7156 31.9214,38.7216 C32.0524,38.7446 32.1844,38.7606 32.3144,38.7856 C32.4124,38.8056 32.4924,38.7696 32.5704,38.7196 C32.5734,38.7176 32.5764,38.7156 32.5784,38.7096 C32.5804,38.7056 32.5834,38.6996 32.5914,38.6876 C32.5534,38.6506 32.5144,38.6116 32.4764,38.5706 C32.4434,38.5396 32.4144,38.5026 32.3824,38.4696 C32.3264,38.4066 32.2684,38.3466 32.2124,38.2816 C32.1934,38.2606 32.1814,38.2346 32.1624,38.2136 C32.1254,38.1686 32.0864,38.1276 32.0494,38.0826 C32.0114,38.0356 31.9754,37.9886 31.9384,37.9396 C31.9194,37.9186 31.8894,37.8986 31.8824,37.8736 C31.8654,37.8126 31.8114,37.7796 31.7814,37.7306 C31.7604,37.6916 31.7194,37.6646 31.6964,37.6276 C31.6244,37.5156 31.5584,37.3986 31.4894,37.2836 C31.4714,37.2546 31.4524,37.2276 31.4354,37.1976 C31.4264,37.1786 31.4194,37.1616 31.4104,37.1426 C31.4164,37.1396 31.4204,37.1346 31.4274,37.1326 C31.4444,37.1486 31.4644,37.1656 31.4804,37.1866 C31.5314,37.2596 31.5794,37.3336 31.6284,37.4066 C31.7004,37.5096 31.7654,37.6136 31.8384,37.7136 C31.8944,37.7896 31.9584,37.8576 32.0164,37.9306 C32.0454,37.9656 32.0684,38.0066 32.0984,38.0376 C32.1374,38.0826 32.1824,38.1216 32.2204,38.1606 C32.2374,38.1786 32.2474,38.1996 32.2584,38.2216 C32.2644,38.2266 32.2654,38.2366 32.2694,38.2426 C32.3054,38.2876 32.3414,38.3346 32.3794,38.3756 C32.4124,38.4126 32.4484,38.4456 32.4814,38.4846 C32.5524,38.5666 32.6324,38.6356 32.7234,38.6956 C32.7654,38.7246 32.8104,38.7446 32.8544,38.7656 C32.8654,38.7716 32.8784,38.7716 32.8884,38.7716 C32.8924,38.7716 32.8954,38.7756 32.8954,38.7756 C32.8724,38.7976 32.8484,38.8146 32.8194,38.8406 C32.3344,39.1096 31.9064,39.3966 31.2064,39.7386 C30.9064,39.6426 30.5804,39.5706 30.5714,39.1316 C30.5194,38.8386 30.3104,38.6236 30.1974,38.3616 C30.0404,38.0766 29.8834,37.7896 29.7284,37.5026 C29.5174,37.2646 29.4314,36.9346 29.1644,36.7366 C29.0964,36.6766 29.0254,36.6176 28.9534,36.5566 C28.6234,36.3366 28.2884,36.1486 27.8674,36.2206 C27.6954,36.2496 27.6274,36.3066 27.6554,36.4966 C27.7594,37.2216 28.7424,38.3186 29.4294,38.4596 C29.4774,38.6256 29.5854,38.7446 29.7344,38.8246 L29.7354,38.8246 L29.9014,38.9476 C30.0044,39.1506 30.6434,39.5686 30.6284,39.8486 C30.6124,39.8486 30.3244,39.9886 30.3914,39.9866 C30.3374,39.9906 29.0194,40.5476 28.9664,40.5536 C28.7964,40.5436 28.6354,40.5806 28.4834,40.6546 C28.2554,40.6506 28.0254,40.6276 27.8104,40.7306 C27.7804,40.7506 27.7514,40.7716 27.7214,40.7936 C27.4334,40.7366 27.1464,40.7286 26.8654,40.8266 C26.5094,40.7236 26.1514,40.6296 25.8264,40.4476 C25.5994,40.2286 25.3714,40.0146 25.1464,39.7956 C24.8144,39.2656 24.6294,38.6526 24.2034,38.1806 C24.1414,38.0216 24.0744,37.8676 23.9354,37.7586 C23.8704,37.6666 23.8054,37.5766 23.7414,37.4886 L23.5334,37.2346 C23.1644,36.7286 22.6454,36.4026 22.1444,36.0546 C21.9074,35.8746 21.6364,35.7696 21.3524,35.6926 C20.9134,35.6756 21.0744,35.9446 21.1594,36.1376 C21.3794,36.6306 21.7394,37.0256 22.1154,37.4086 C22.3044,37.6626 22.5084,37.9066 22.7704,38.0906 C22.8664,38.1836 22.9634,38.2756 23.0624,38.3676 C23.0894,38.4006 23.1184,38.4306 23.1494,38.4616 C23.2794,38.6316 23.4124,38.7916 23.6324,38.8466 C23.6954,38.9086 23.7574,38.9676 23.8214,39.0316 C23.8894,39.0906 23.9584,39.1506 24.0274,39.2136 C24.3424,39.5416 24.6714,39.8536 25.0494,40.1116 C25.1954,40.2606 25.3394,40.4066 25.4844,40.5566 L25.1384,40.7266 C24.9024,40.8106 24.6594,40.8326 24.4084,40.8466 C23.7974,40.8736 23.1974,40.7526 22.5924,40.7446 L22.2414,40.6376 C22.1044,40.4456 21.9684,40.2586 21.8324,40.0646 C21.8314,40.0356 21.8264,40.0066 21.8144,39.9746 C21.7444,39.6976 21.6304,39.4396 21.4514,39.2116 C21.3604,38.9126 21.1814,38.6666 20.9894,38.4306 C20.9404,38.1396 20.7464,37.9286 20.5864,37.7016 L20.5034,37.5976 C20.4554,37.5296 20.4074,37.4906 20.3584,37.4866 C20.3734,37.3886 20.3634,37.2906 20.3044,37.2086 C20.2164,37.1156 20.1274,37.0176 20.0384,36.9246 C19.7264,36.7236 19.4544,36.4946 19.1764,36.2406 C19.0364,36.1136 18.5394,35.6466 18.1994,35.5556 C18.0754,35.5586 17.9674,35.5996 17.9094,35.7016 C17.9124,35.7116 17.9174,35.7226 17.9214,35.7356 C17.9114,35.7386 17.9014,35.7406 17.8914,35.7456 C17.8794,35.7766 17.8684,35.8056 17.8674,35.8456 C17.9094,36.1536 18.0164,36.5086 18.0784,36.6956 C18.0854,36.7136 18.0904,36.7306 18.0974,36.7506 C18.1314,36.8366 18.1684,36.9206 18.2074,37.0076 L18.2134,37.0076 C18.2624,37.1156 18.3114,37.2226 18.3704,37.3246 C18.4384,37.4386 18.5034,37.5466 18.5654,37.6566 C18.5984,37.7196 18.6304,37.7756 18.6604,37.8366 C18.7594,37.9806 18.8584,38.1296 18.9574,38.2756 C19.0204,38.4086 19.1174,38.5086 19.2524,38.5666 C19.3054,38.5976 19.3604,38.6256 19.4134,38.6526 C19.4844,38.8536 19.6444,38.9516 19.8244,39.0336 L19.8244,39.0316 C20.2314,39.3986 20.6014,39.8206 21.1604,39.9716 C21.2194,40.0086 21.2814,40.0436 21.3394,40.0806 C21.4574,40.2326 21.5754,40.3876 21.6914,40.5356 C21.6724,40.5336 21.6554,40.5376 21.6384,40.5476 C21.2264,40.4576 20.8134,40.3656 20.4034,40.2716 C20.1574,40.2266 19.9364,40.1256 19.7074,40.0236 C19.0844,39.7426 18.5604,39.6806 17.7434,39.2756 C17.3654,38.9806 16.9584,38.6336 16.9784,37.9746 L16.8884,37.6916 C16.7614,36.9736 16.5654,36.2806 16.1314,35.6776 C15.8904,35.0446 15.5534,34.4736 15.0684,33.9906 C14.7884,33.6726 14.4794,33.3946 14.1014,33.2096 L13.8924,32.9056 C13.8474,32.6476 13.1064,31.4226 12.8984,31.2736 C12.8994,31.2756 12.8994,31.2756 12.8994,31.2776 L12.8984,31.2756 C12.8874,31.2526 12.8714,31.2316 12.8504,31.2126 C12.4904,30.7596 12.1274,30.3066 11.7654,29.8546 C11.7534,29.7336 11.6924,29.6426 11.6054,29.5686 C11.5354,29.4846 11.4634,29.4046 11.3714,29.3596 C11.3734,29.5736 11.3914,29.7966 11.4324,30.0286 C11.6904,31.4886 12.2284,32.7306 13.0874,33.9376 C13.2054,34.1016 13.6234,34.9676 13.5954,35.2246 C13.6374,35.3476 13.6594,35.4716 13.6524,35.5846 C13.8554,35.8986 14.0594,36.2136 14.1974,36.5646 C14.2424,36.6766 14.1704,36.8206 14.0674,36.8576 C14.0594,36.8506 14.0534,36.8446 14.0454,36.8386 C14.0064,36.8506 13.9664,36.8476 13.9264,36.8296 C13.9214,36.8276 13.9174,36.8256 13.9134,36.8226 L13.9194,36.8276 C13.9144,36.8256 13.9104,36.8256 13.9054,36.8226 C13.4504,36.5796 12.9714,36.2876 12.5034,35.9596 C12.3924,35.8086 12.2464,35.7076 12.0724,35.6466 C12.0644,35.6426 12.0564,35.6356 12.0494,35.6316 C11.7484,35.3616 11.4494,35.0896 11.1484,34.8206 C11.0684,34.7346 10.9884,34.6456 10.9144,34.5596 C10.8514,34.4586 10.7894,34.3586 10.7274,34.2586 C10.6924,34.0816 9.8774,33.4276 9.8114,33.2616 C9.6074,32.7506 10.2594,32.7016 10.2564,32.1456 C10.3124,31.7456 10.4594,31.3376 10.1994,30.9526 C10.2394,30.8086 10.2234,30.6666 10.1724,30.5286 C10.0484,30.2596 10.1314,29.9386 9.9614,29.6816 C9.9074,29.5826 9.8564,29.4796 9.7944,29.3876 C9.6214,29.1176 9.4394,29.0716 9.2494,29.3726 C9.1474,29.4406 9.0804,29.5376 9.0354,29.6476 L9.0364,29.6476 C9.0284,29.6746 9.0214,29.6956 9.0164,29.7226 C8.9184,29.8546 8.8634,29.9986 8.8734,30.1696 C8.8704,30.1926 8.8704,30.2176 8.8714,30.2426 L8.8714,30.2446 C8.7624,30.5666 8.8254,30.8756 8.9344,31.1856 C9.0164,31.4506 9.0594,31.7426 9.3784,31.8516 C9.3784,31.8536 9.3784,31.8536 9.3794,31.8556 C9.3184,32.0956 9.3954,32.2906 9.5884,32.4406 C9.6234,32.6356 9.7074,32.8266 9.6354,33.0266 C9.6264,33.0306 9.6234,33.0436 9.6164,33.0506 C9.6124,33.0466 9.6094,33.0436 9.6064,33.0416 L9.6354,33.0266 C9.5134,32.9186 9.3914,32.8106 9.2684,32.7016 C9.0554,32.4606 8.9264,32.1456 8.6474,31.9566 C8.5314,31.7086 8.3764,31.4886 8.1634,31.3146 C8.1414,31.2866 8.1174,31.2566 8.0934,31.2296 C7.8484,30.8256 7.6384,30.3986 7.3324,30.0396 L7.2874,29.8516 C7.2544,29.7946 7.2224,29.7366 7.1894,29.6816 C7.2614,29.4136 7.3154,29.1316 7.7024,29.1026 C7.9594,29.0456 8.1414,28.8476 8.3704,28.7346 C8.6204,28.5806 8.8704,28.4276 9.1194,28.2736 C9.3234,28.0746 9.6154,27.9806 9.7814,27.7336 C9.8304,27.6686 9.8814,27.6016 9.9314,27.5376 C10.1134,27.2316 10.3924,26.2046 10.3114,25.8296 C10.2764,25.6806 10.1974,25.5156 10.0284,25.5466 C9.3834,25.6766 8.3414,27.4306 8.2474,28.0526 C8.1014,28.0996 8.0004,28.2036 7.9344,28.3406 L7.9334,28.3406 C7.8994,28.3946 7.8654,28.4456 7.8304,28.4956 C7.6574,28.5986 7.6104,28.8616 7.3584,28.8636 C7.3424,28.7506 6.9304,28.9626 6.9304,28.9906 C6.9194,29.0476 6.8264,28.8416 6.7144,28.5946 C6.7064,28.5366 6.7034,28.4766 6.7064,28.4186 C6.7304,28.0976 6.8154,27.7956 6.9304,27.4986 C6.9844,27.3676 7.0304,27.1956 7.2444,27.2656 C7.2574,27.2726 7.2764,27.2646 7.2904,27.2576 C7.5704,27.1426 7.8164,26.9816 7.9914,26.7296 C8.1464,26.5066 8.2254,26.2436 8.3324,25.9936 C8.4024,25.8326 8.3744,25.6886 8.3264,25.5416 C8.3004,25.4636 8.2404,25.3986 8.1964,25.3256 C7.9954,25.0126 7.5374,24.9316 7.2604,25.1536 C7.0034,25.3646 6.8504,25.6316 6.7124,25.9266 C6.6224,26.1856 6.6424,26.6456 6.7734,26.9796 C6.8324,27.1286 6.8374,27.2386 6.7814,27.3716 C6.6894,27.5866 6.6214,27.8086 6.5564,28.0286 C6.5494,28.0546 6.5524,28.0816 6.5254,28.0906 C6.5064,28.0936 6.4944,28.0886 6.4824,28.0786 C6.4354,27.9786 6.3944,27.9036 6.3684,27.8736 C6.3624,27.8266 6.3574,27.7806 6.3514,27.7336 C6.3514,27.5796 6.3114,27.4376 6.2364,27.3056 C6.2314,27.0996 6.2414,26.8956 6.1394,26.7056 C6.1184,26.6796 6.0994,26.6546 6.0784,26.6296 C6.1164,26.3676 6.1104,26.1116 6.0104,25.8616 C6.0834,25.5416 6.1504,25.2166 6.3004,24.9156 C6.4844,24.7016 6.6684,24.4886 6.8534,24.2776 C7.3114,23.9516 7.8524,23.7606 8.2564,23.3576 C8.3964,23.2946 8.5314,23.2256 8.6224,23.0976 C8.7004,23.0356 8.7774,22.9706 8.8554,22.9086 C8.9274,22.8436 9.0004,22.7756 9.0744,22.7116 C9.5084,22.3586 9.7754,21.8786 10.0664,21.4126 C10.2144,21.1916 10.2954,20.9436 10.3524,20.6876 C10.3474,20.2916 10.1144,20.4486 9.9454,20.5356 C9.5124,20.7566 9.1744,21.0966 8.8514,21.4496 C8.6304,21.6336 8.4234,21.8226 8.2694,22.0676 C8.1904,22.1596 8.1144,22.2486 8.0344,22.3396 C8.0074,22.3696 7.9814,22.3966 7.9544,22.4246 C7.8104,22.5476 7.6724,22.6766 7.6314,22.8756 C7.5794,22.9336 7.5294,22.9936 7.4784,23.0536 C7.4254,23.1186 7.3734,23.1816 7.3224,23.2486 C7.0424,23.5436 6.7784,23.8526 6.5654,24.2036 C6.4394,24.3406 6.3114,24.4766 6.1854,24.6156 C5.8844,25.1126 5.9724,24.5566 5.9274,24.3066 C5.8404,24.0986 5.8994,23.8876 5.8774,23.6646 C5.8244,23.1186 5.9054,22.5736 5.8844,22.0296 C5.9124,21.9246 6.0244,21.1806 6.0154,21.1686 C6.0414,21.0106 6.0684,20.8526 6.0944,20.6936 C6.1674,20.6536 6.2454,20.6206 6.3104,20.5686 C6.3884,20.5066 6.4694,20.4506 6.5504,20.3926 C6.6784,20.3366 6.8094,20.2796 6.9364,20.2186 C7.5094,19.9446 8.1004,19.7186 8.6754,19.4496 C9.0724,19.2616 9.4804,19.0966 9.8934,18.9406 C10.4084,18.7526 10.9224,18.5596 11.4484,18.3986 C11.7144,18.3166 11.9864,18.2486 12.2474,18.1526 C12.2874,18.1406 12.3294,18.1306 12.3584,18.0886 C10.4624,18.5536 8.7004,19.3606 6.9234,20.1356 C6.9774,20.0996 7.0304,20.0626 7.0834,20.0276 C7.1034,20.0126 7.1254,20.0006 7.1464,19.9856 C7.5944,19.7146 8.0434,19.4406 8.4924,19.1696 C8.6344,19.0976 8.7774,19.0276 8.9244,18.9626 C9.6434,18.6486 10.3524,18.3096 11.0914,18.0456 C11.9634,17.7326 12.8304,17.4036 13.7004,17.0806 C13.7694,17.0556 13.8434,17.0356 13.8944,16.9686 C13.8774,16.9726 13.8634,16.9726 13.8474,16.9786 C13.5794,17.0736 13.3114,17.1646 13.0434,17.2646 C12.4764,17.4686 11.9124,17.6776 11.3444,17.8786 C10.8724,18.0456 10.4104,18.2366 9.9524,18.4396 C9.6234,18.5886 9.2924,18.7346 8.9654,18.8816 C9.0904,18.8066 9.2184,18.7316 9.3444,18.6536 C10.1784,18.1406 11.0364,17.6646 11.8424,17.1016 C11.7144,17.1646 11.5864,17.2356 11.4644,17.3066 C11.1944,17.4706 10.9324,17.6426 10.6604,17.8046 C9.9714,18.2096 9.2914,18.6326 8.6104,19.0466 C8.2854,19.2036 7.9644,19.3676 7.6684,19.5806 C7.5974,19.6316 7.5244,19.6806 7.4334,19.6946 C7.6904,19.4766 7.9464,19.2616 8.2144,19.0586 C8.6914,18.7066 9.1944,18.3866 9.6864,18.0516 C10.2034,17.7056 10.7384,17.3856 11.2734,17.0676 C11.7524,16.7816 12.2614,16.5466 12.7464,16.2706 C12.8804,16.1976 13.0124,16.1236 13.1554,16.0636 C13.2234,16.0356 13.2964,16.0076 13.3574,15.9226 C13.1284,16.0006 12.9374,16.1026 12.7484,16.2036 C12.1394,16.5316 11.5164,16.8376 10.9224,17.2016 C10.5134,17.4506 10.1044,17.7026 9.7044,17.9736 C8.9924,18.4546 8.2654,18.9176 7.6044,19.4766 C7.2744,19.7586 6.9244,20.0126 6.5734,20.2646 C6.5654,20.2656 6.5594,20.2686 6.5494,20.2686 C6.5964,20.2266 6.6324,20.1936 6.6714,20.1646 C7.0964,19.8516 7.5024,19.5146 7.9094,19.1786 C8.3364,18.8226 8.7714,18.4796 9.1974,18.1216 C9.5594,17.8186 9.9114,17.5016 10.2524,17.1756 C10.5524,16.8916 10.8344,16.5926 11.1214,16.2966 C11.1544,16.2626 11.1804,16.2296 11.2044,16.1906 C11.0484,16.3016 10.9154,16.4386 10.7844,16.5746 C10.3394,17.0396 9.8714,17.4806 9.3844,17.9006 C8.7674,18.4366 8.1274,18.9436 7.4964,19.4596 C7.1444,19.7506 6.7854,20.0336 6.4154,20.3046 C6.3194,20.3756 6.2244,20.4436 6.1274,20.5126 L6.1264,20.5146 C6.1524,20.3576 6.1794,20.2006 6.2054,20.0476 C6.2344,19.8266 6.3164,19.6236 6.3964,19.4146 C6.6184,18.8446 6.8544,18.2656 6.9224,17.6216 C7.1694,17.2686 7.5144,16.8856 8.1064,16.8726 C8.1884,16.8446 8.2704,16.8106 8.3534,16.7786 C8.9904,16.6336 9.6014,16.4246 10.1214,16.0096 C10.6794,15.7626 11.1764,15.4326 11.5854,14.9776 C11.9154,14.6536 12.2014,14.3026 12.3284,13.8456 C12.0084,14.1036 11.7504,14.4216 11.3964,14.6226 C10.9274,14.9096 10.4604,15.2006 9.9944,15.4876 C9.5754,15.6506 9.2744,15.9546 9.0024,16.2946 C8.7804,16.4176 8.5574,16.5376 8.3344,16.6606 C8.1704,16.7076 8.0044,16.7526 7.8404,16.8006 C7.4544,16.7876 7.0564,17.2496 7.0264,17.2226 C7.1134,16.0276 7.5474,15.1896 7.5964,14.8256 C7.6674,14.2936 7.8654,13.9406 8.1214,13.6186 C8.3024,13.5876 8.4864,13.6186 8.6874,13.7126 C9.1054,13.9086 9.5694,13.9336 10.0284,13.9406 C10.1164,13.9286 10.2034,13.9176 10.2924,13.9046 C10.6734,13.9236 11.0004,13.7396 11.3444,13.6166 C11.4904,13.6746 11.6174,13.6286 11.7374,13.5446 C11.9254,13.4516 12.1154,13.3576 12.3034,13.2666 C12.3294,13.2606 12.3514,13.2456 12.3694,13.2246 C12.6074,13.1416 12.8054,12.9906 13.0054,12.8466 C13.2914,12.8346 13.3894,12.6166 13.4794,12.3946 C13.9214,12.0906 14.1674,11.6216 14.4634,11.1986 C14.5414,11.0846 14.6214,10.9486 14.5124,10.8056 C14.3984,10.6546 14.2384,10.5696 14.0564,10.6136 C13.8584,10.6606 13.6724,10.7516 13.4804,10.8256 L12.7174,11.1986 C12.5064,11.3156 12.2934,11.4316 12.0824,11.5466 C12.0174,11.5776 11.9544,11.6086 11.8894,11.6376 C11.6354,11.7956 11.3554,11.9256 11.2754,12.2546 C11.1634,12.2566 11.0964,12.3256 11.0394,12.4096 L11.0304,12.4146 C10.7424,12.5256 10.4964,12.7006 10.3094,12.9476 C9.9824,13.1316 9.6494,13.2956 9.3104,13.4516 C9.0144,13.5876 8.7394,13.5876 8.5934,13.3896 C8.5394,13.3206 8.5374,13.2606 8.5564,13.2086 C8.5394,13.2016 8.5274,13.1886 8.5144,13.1786 C8.7094,12.9736 8.9144,12.7606 9.1244,12.4956 C9.6704,11.8026 10.0494,11.1676 10.7614,10.7426 C10.8574,10.5806 10.9864,10.4396 11.1394,10.3096 C11.1374,10.3016 11.1384,10.2906 11.1334,10.2846 L11.8274,9.6016 C11.9754,9.6256 12.1214,9.6486 12.2694,9.6746 L12.2054,9.7346 C12.3374,9.7546 12.4634,9.8076 12.5744,9.8986 C12.5934,9.8476 12.6144,9.7956 12.6274,9.7416 L12.6284,9.7396 C13.2074,9.9206 13.8114,9.9756 14.4024,10.0916 C14.7584,10.0566 15.1064,10.3896 15.4654,10.1096 C15.9014,10.2186 16.3504,10.0066 16.7824,10.1766 C17.1084,10.1096 17.4224,10.0086 17.7034,9.8266 C17.8534,9.7266 18.1214,9.6976 18.1044,9.4786 C18.0854,9.2356 17.8264,9.1196 17.6224,9.0866 C16.6194,8.9126 15.6164,8.7166 14.5894,8.8786 C13.9264,8.7876 13.2964,8.9346 12.6734,9.1406 C12.5744,9.1346 12.4664,9.1486 12.3954,9.0526 C12.5684,8.8966 12.7434,8.7426 12.9164,8.5866 C13.0684,8.5336 13.1834,8.4356 13.2694,8.3016 C13.4414,8.2336 13.6094,8.1606 13.7164,7.9946 L14.1354,7.7366 C14.2524,7.6616 14.3704,7.5866 14.4874,7.5106 C14.6084,7.5026 14.7044,7.4406 14.7874,7.3536 C15.5334,6.8816 16.1894,6.5416 16.7544,6.2906 C16.9424,6.2356 17.1284,6.1746 17.3334,6.1816 C17.6274,6.1956 17.9214,6.2236 18.1794,6.3736 C18.4384,6.5266 18.6774,6.7116 18.9054,6.9126 C18.9704,6.9686 19.0584,7.0136 19.0944,7.0936 C19.1874,7.3036 19.3534,7.4756 19.4134,7.7066 C19.4644,7.9046 19.6124,8.0586 19.6914,8.2496 C19.7674,8.4416 19.8504,8.6376 19.9564,8.8146 C20.1374,9.1146 20.3814,9.3756 20.5684,9.6746 C20.7074,9.8966 20.9214,10.0456 21.1094,10.2216 C21.1734,10.2776 21.2084,10.3816 21.2984,10.3956 C21.5094,10.4366 21.6624,10.5806 21.8384,10.6786 C22.1034,10.8216 22.3834,10.9156 22.6664,11.0036 C22.7064,11.0146 22.7504,11.0176 22.7804,10.9816 C22.7974,10.9556 22.7834,10.9316 22.7714,10.9086 C22.7954,10.9086 22.8164,10.9026 22.8334,10.8786 C22.8574,10.8456 22.8224,10.8136 22.8104,10.7796 C22.7104,10.4736 22.4584,10.2666 22.3044,9.9976 C22.1714,9.7636 21.9864,9.5626 21.8384,9.3406 C21.6184,9.0096 21.3694,8.7046 21.0654,8.4526 C20.7624,8.2006 20.4464,7.9606 20.1344,7.7176 C20.0584,7.6586 19.9834,7.5976 19.9054,7.5456 C19.6254,7.3686 19.3224,7.2286 19.0944,6.9726 C18.9504,6.8096 18.8034,6.6406 18.6154,6.5156 C18.5984,6.5076 18.5804,6.4926 18.5664,6.4746 C18.5604,6.4486 18.5734,6.4246 18.6434,6.4036 C18.7004,6.3896 18.7074,6.3496 18.6784,6.3036 C18.6594,6.2716 18.6424,6.2426 18.6234,6.2126 C18.6564,6.1816 18.6914,6.1936 18.7204,6.1966 C19.1094,6.2716 19.4784,6.4036 19.7784,6.6646 C20.1234,6.9656 20.5034,7.2176 20.8664,7.4936 C20.8994,7.5186 20.9344,7.5386 20.9694,7.5566 C21.1394,7.6456 21.2904,7.7646 21.4454,7.8836 C21.6294,8.0226 21.8024,8.1796 22.0074,8.2946 C22.4084,8.5146 22.8514,8.6446 23.2514,8.8696 C23.4624,8.9876 23.7064,9.0196 23.9204,9.1326 C23.9774,9.1626 24.0434,9.1736 24.1104,9.1556 C24.2084,9.1306 24.2234,9.0986 24.1614,9.0216 C24.2324,8.9966 24.2394,8.9616 24.1794,8.8926 C24.1184,8.8226 24.0464,8.7646 23.9894,8.6916 C23.7254,8.3616 23.4294,8.0646 23.1394,7.7606 C22.8344,7.4356 22.4354,7.2826 22.0734,7.0586 C21.9054,6.9556 21.7124,6.8926 21.5174,6.8366 C21.2244,6.7546 20.9394,6.6466 20.6484,6.5556 C20.3254,6.4536 20.0064,6.3286 19.6744,6.2556 C19.4714,6.2096 19.2814,6.1256 19.0774,6.0806 C18.8594,6.0336 18.6364,6.0016 18.4254,5.9266 C18.4044,5.9206 18.3844,5.9136 18.3684,5.9086 C18.3614,5.8906 18.3604,5.8696 18.3764,5.8376 C18.3944,5.7976 18.3774,5.7746 18.3494,5.7656 C18.3424,5.7496 18.3274,5.7406 18.3074,5.7336 C18.7344,5.6196 18.9664,5.5836 18.9704,5.5376 C20.0744,5.3226 21.1714,5.0746 22.3034,5.0626 C22.3984,5.0926 22.4934,5.1206 22.5864,5.1486 L23.1954,5.1936 C23.4294,5.2216 23.5964,5.3906 23.7984,5.4886 C24.0244,5.5966 24.2534,5.6956 24.4724,5.8266 C24.6574,5.9356 24.8254,6.0746 25.0114,6.1846 C25.1544,6.2696 25.2324,6.4146 25.3184,6.5456 C25.5094,6.8416 25.6464,7.1616 25.7344,7.5066 C25.8024,7.7756 25.8614,8.0446 25.8874,8.3166 C25.9394,8.8396 26.0324,9.3606 26.0324,9.8896 C26.0324,10.2016 26.0374,10.5066 26.0994,10.8156 C26.1364,10.9966 26.1034,11.1886 26.1264,11.3756 C26.1744,11.7786 26.2814,12.1666 26.3984,12.5516 C26.4594,12.7546 26.4684,12.9736 26.5314,13.1786 C26.5934,13.3906 26.6824,13.5936 26.7564,13.7986 C26.8154,13.9646 26.8574,14.1326 26.9034,14.3006 C26.9514,14.4846 27.0134,14.6626 27.1234,14.8236 C27.1804,14.9076 27.1834,15.0176 27.2524,15.0996 C27.3374,15.2006 27.3604,15.2046 27.4094,15.0866 C27.4654,14.9436 27.5104,14.8006 27.5374,14.6486 C27.5594,14.5326 27.6394,14.4306 27.6594,14.3056 C27.7074,14.0106 27.7844,13.7186 27.8004,13.4226 C27.8214,12.9566 27.7544,12.4986 27.7064,12.0396 C27.6884,11.8576 27.6484,11.6776 27.6034,11.4986 C27.5544,11.3016 27.5204,11.0956 27.4624,10.8976 C27.3834,10.6096 27.2864,10.3266 27.1744,10.0496 C27.0054,9.6236 26.8214,9.2016 26.7014,8.7606 C26.6104,8.4086 26.4144,8.1096 26.2664,7.7886 C26.1614,7.5586 26.0304,7.3426 25.9114,7.1236 C25.8864,7.0746 25.8684,7.0146 25.9684,7.0396 C26.0064,7.0456 26.0474,7.0366 26.0564,6.9966 C26.0784,6.8946 26.1244,6.9366 26.1754,6.9686 C26.3784,7.0956 26.5384,7.2716 26.6674,7.4636 C26.7474,7.5866 26.8604,7.6656 26.9504,7.7736 C27.0994,7.9576 27.1764,8.1836 27.3324,8.3636 C27.4334,8.4796 27.5594,8.5646 27.6624,8.6766 C27.9484,8.9766 28.2504,9.2676 28.5254,9.5856 C28.6134,9.6876 28.7284,9.7736 28.8344,9.8646 C29.0434,10.0436 29.2684,10.2016 29.4704,10.3936 C29.5854,10.5046 29.7344,10.5806 29.8854,10.6436 C30.0484,10.7116 30.1944,10.8136 30.3454,10.8996 C30.4994,10.9886 30.6604,11.0086 30.8254,11.0276 C30.9704,11.0446 31.1194,11.0356 31.2684,11.0356 C31.3524,11.0356 31.3904,10.9946 31.3564,10.9126 C31.2724,10.7136 31.1544,10.5316 30.9794,10.4116 C30.7694,10.2716 30.5984,10.0966 30.4524,9.8946 C30.1944,9.5376 29.8914,9.2206 29.5344,8.9596 C29.3034,8.7876 29.0934,8.5866 28.8564,8.4266 C28.5014,8.1836 28.1664,7.9136 27.7644,7.7366 C27.4924,7.6186 27.2464,7.4446 27.0194,7.2456 C26.9604,7.1926 26.8974,7.1466 26.8194,7.1166 C26.7584,7.0956 26.6994,7.0676 26.6514,7.0276 C26.2434,6.6976 25.7864,6.4366 25.3944,6.0856 C25.0754,5.7976 24.6964,5.6136 24.2994,5.4606 C24.2314,5.4336 24.1824,5.3546 24.2244,5.2586 L24.2184,5.2586 C24.6284,5.2546 25.0584,5.1916 25.4424,5.3086 C25.5024,5.3006 25.5664,5.2986 25.6354,5.3086 C25.9354,5.3426 26.2384,5.3726 26.5404,5.4026 C26.5654,5.4086 26.5894,5.4166 26.6134,5.4296 C26.7754,5.5416 26.9364,5.6546 27.0984,5.7646 C27.2484,5.8676 27.2724,5.9106 27.2114,6.0786 C27.1084,6.3626 27.1874,6.5986 27.3884,6.8056 C27.4924,6.9096 27.5954,7.0146 27.7074,7.1096 C27.7944,7.1836 27.9104,7.2016 28.0154,7.2456 C28.1914,7.3196 28.3764,7.3056 28.5594,7.2736 C28.6414,7.2586 28.7044,7.2176 28.7504,7.1396 C28.8664,6.9456 28.8884,6.7326 28.8664,6.5116 C28.8564,6.4176 28.7984,6.3536 28.7484,6.2806 C28.5264,5.9626 28.2294,5.7766 27.8274,5.7876 C27.7484,5.7876 27.6664,5.7916 27.5864,5.7956 C27.4604,5.7996 27.3514,5.7426 27.2494,5.6796 C27.1264,5.6046 26.9994,5.5296 26.8754,5.4356 C27.5934,5.5146 28.3064,5.6136 28.9864,5.8426 C29.7274,6.0896 30.3644,6.5936 30.9984,7.0276 L30.9584,7.0366 C31.0404,7.0826 31.1164,7.1386 31.1884,7.1926 C31.2354,7.2456 31.2724,7.3016 31.3014,7.3576 C31.3144,7.3536 31.3284,7.3536 31.3424,7.3506 L31.3834,7.3506 C31.5954,7.5366 31.7894,7.7406 31.9994,7.9466 C32.2234,8.1696 32.4244,8.4176 32.4894,8.7406 C32.5704,9.1426 32.6394,9.5526 32.6324,9.9606 C32.6254,10.3986 32.6524,10.8366 32.4284,11.2486 C32.3384,11.4126 32.2434,11.5766 32.1404,11.7276 C32.0314,11.8896 31.9164,12.0476 31.8234,12.2196 C31.7174,12.4096 31.6534,12.6166 31.5454,12.8066 C31.3794,13.1016 31.2464,13.4176 31.0874,13.7186 C30.9564,13.9666 30.8884,14.2386 30.7634,14.4886 C30.6254,14.7656 30.5324,15.0606 30.4344,15.3486 C30.3764,15.5166 30.3684,15.7026 30.3294,15.8776 C30.2694,16.1396 30.1654,16.3886 30.0814,16.6406 C30.0564,16.7226 30.0474,16.7966 30.0704,16.8776 C30.0984,16.9856 30.1214,16.9976 30.2134,16.9286 C30.3364,16.8346 30.4644,16.7416 30.5734,16.6316 C30.8684,16.3266 31.1414,16.0006 31.3384,15.6236 C31.4624,15.3836 31.6394,15.1816 31.7724,14.9486 C31.8084,14.8846 31.8464,14.8256 31.8974,14.7716 C32.0694,14.5966 32.1814,14.3776 32.2864,14.1586 C32.3934,13.9386 32.4304,13.6926 32.5284,13.4686 C32.5654,13.3816 32.6044,13.2956 32.6224,13.1976 C32.6644,12.9786 32.7224,12.7606 32.7624,12.5436 C32.7904,12.3866 32.8394,12.2336 32.8704,12.0786 C32.9464,11.7116 32.9334,11.3406 32.9134,10.9686 C32.8854,10.3776 32.9344,9.7826 32.8124,9.1976 C32.8084,9.1836 32.8134,9.1666 32.8144,9.1486 C32.8194,9.0746 32.8394,9.0336 32.9114,9.1056 C32.9504,9.1466 32.9964,9.1576 33.0364,9.1126 C33.0804,9.0596 33.1074,9.0816 33.1354,9.1256 C33.2274,9.2646 33.3204,9.4036 33.4164,9.5396 C33.4874,9.6366 33.5854,9.7196 33.6364,9.8226 C33.7674,10.0966 33.9554,10.3436 34.0124,10.6506 C34.0164,10.6696 34.0254,10.6866 34.0344,10.7076 C34.1374,10.9196 34.2074,11.1406 34.2364,11.3786 C34.2544,11.5176 34.2704,11.6606 34.3174,11.7896 C34.3954,12.0096 34.4774,12.2316 34.5424,12.4556 C34.6384,12.7846 34.7434,13.1176 34.8094,13.4586 C34.8244,13.5406 34.8514,13.6216 34.8944,13.6976 C35.1274,14.0856 35.3914,14.4486 35.7034,14.7806 C35.8464,14.9316 35.9964,15.0776 36.1334,15.2336 C36.2844,15.4066 36.4594,15.5366 36.6774,15.6106 C36.7484,15.6336 36.7804,15.6126 36.7684,15.5386 C36.7534,15.4326 36.7414,15.3256 36.7184,15.2206 C36.6464,14.8986 36.5564,14.5826 36.4974,14.2596 C36.4374,13.9406 36.3344,13.6336 36.2084,13.3386 C36.0764,13.0166 35.8544,12.7506 35.6914,12.4456 C35.6054,12.2846 35.5044,12.1296 35.4114,11.9696 C35.2984,11.7766 35.1784,11.5846 35.0334,11.4196 C34.7744,11.1216 34.5174,10.8256 34.2244,10.5636 C34.1924,10.5336 34.1644,10.4976 34.1424,10.4616 C33.9564,10.1316 33.7364,9.8226 33.5774,9.4786 C33.7404,9.6296 33.9104,9.7716 34.0124,9.9756 C34.0454,10.0496 34.0914,10.1316 34.1924,10.0416 C34.2354,10.0006 34.2664,10.0476 34.2924,10.0696 C34.4304,10.2016 34.5634,10.3326 34.7004,10.4646 C34.8394,10.5986 34.9654,10.7476 35.1214,10.8566 C35.5114,11.1306 35.9244,11.3656 36.3324,11.6086 C36.6214,11.7836 36.9344,11.9106 37.2084,12.1026 C37.3504,12.2066 37.5394,12.2376 37.7104,12.2996 C37.9794,12.3966 38.2674,12.4096 38.5424,12.4796 C38.7034,12.5216 38.8744,12.5476 39.0414,12.5476 C39.4244,12.5476 39.8034,12.4856 40.1814,12.4246 C40.2144,12.4206 40.2524,12.4116 40.2614,12.3776 C40.2734,12.3306 40.2264,12.3236 40.1944,12.3086" id="Fill-23"></path>
                <path d="M30.8875,39.7544 C30.6135,39.6724 30.3045,39.7214 30.0215,39.6764 C29.7695,39.6414 29.5385,39.5654 29.3255,39.4494 C29.1165,39.3364 28.9305,39.1934 28.7435,39.0494 C28.5045,38.8654 28.2575,38.6884 27.9985,38.5274 C27.7485,38.3714 27.4715,38.2794 27.1905,38.1934 C27.0075,38.1414 26.8065,38.1274 26.6185,38.0784 C26.3025,37.9984 25.9655,37.9754 25.6515,37.8874 C25.5585,37.8634 25.4705,37.8264 25.3805,37.7914 C25.3555,37.7854 25.3255,37.7624 25.2985,37.8034 C25.2805,37.8304 25.2945,37.8584 25.3075,37.8814 C25.4595,38.1524 25.6135,38.4184 25.8115,38.6524 C25.8965,38.7544 26.0005,38.8384 26.1125,38.9084 C26.3025,39.0244 26.4605,39.1904 26.6615,39.2854 C26.7925,39.3444 26.9115,39.4384 27.0565,39.4534 C27.3325,39.4844 27.5775,39.5864 27.8465,39.6414 C28.2215,39.7194 28.5975,39.8054 28.9855,39.8524 C29.1395,39.8714 29.3075,39.8444 29.4705,39.8364 C29.6305,39.8284 29.7905,39.8184 29.9495,39.8094 C29.9815,39.8094 30.0285,39.7974 30.0235,39.8484 C30.0115,39.9754 30.0925,39.9454 30.1585,39.9164 C30.3505,39.8364 30.5355,39.8424 30.7245,39.8364" id="Fill-24"></path>
            </g>
        </g>
    </g>
</svg>