<?xml version="1.0" encoding="UTF-8"?>
<svg width="60px" height="60px" viewBox="0 0 60 60" version="1.1" xmlns="http://www.w3.org/2000/svg" xmlns:xlink="http://www.w3.org/1999/xlink">
    <!-- Generator: Sketch 43.2 (39069) - http://www.bohemiancoding.com/sketch -->
    <title>cross</title>
    <desc>Created with Sketch.</desc>
    <defs></defs>
    <g id="Page-1" stroke="none" stroke-width="1" fill="none" fill-rule="evenodd">
        <g id="cross" fill="#FFFFFF">
            <g id="Group">
                <g>
                    <polygon id="Fill-1" points="26 60 34 60 34 0 26 0"></polygon>
                    <polygon id="Fill-2" points="0 34 60 34 60 26 0 26"></polygon>
                </g>
            </g>
        </g>
    </g>
</svg>