<?xml version="1.0" encoding="UTF-8"?>
<svg width="60px" height="60px" viewBox="0 0 60 60" version="1.1" xmlns="http://www.w3.org/2000/svg" xmlns:xlink="http://www.w3.org/1999/xlink">
    <!-- Generator: Sketch 43.2 (39069) - http://www.bohemiancoding.com/sketch -->
    <title>facebook</title>
    <desc>Created with Sketch.</desc>
    <defs></defs>
    <g id="Page-1" stroke="none" stroke-width="1" fill="none" fill-rule="evenodd">
        <g id="facebook" fill="#FFFFFF">
            <g transform="translate(14.000000, 1.000000)" id="Fill-1">
                <path d="M28.8078621,32.0024828 L30.1568276,21.550069 L19.8078621,21.550069 L19.8078621,14.8797241 C19.8078621,11.8548966 20.652,9.7942069 24.9885517,9.7942069 L30.5168276,9.7942069 L30.5168276,0.44662069 C29.5692414,0.318344828 26.2837241,0.0328275862 22.4561379,0.0328275862 C14.4782069,0.0328275862 9.02441379,4.90317241 9.02441379,13.8493793 L9.02441379,21.550069 L-0.000413793103,21.550069 L-0.000413793103,32.0024828 L9.02441379,32.0024828 L9.02441379,58.8121379 L19.8078621,58.8121379 L19.8078621,32.0024828 L28.8078621,32.0024828 Z"></path>
            </g>
        </g>
    </g>
</svg>