<?xml version="1.0" encoding="UTF-8"?>
<svg width="15px" height="9px" viewBox="0 0 15 9" version="1.1" xmlns="http://www.w3.org/2000/svg" xmlns:xlink="http://www.w3.org/1999/xlink">
    <!-- Generator: Sketch 42 (36781) - http://www.bohemiancoding.com/sketch -->
    <title>arrow-bottom</title>
    <desc>Created with Sketch.</desc>
    <defs></defs>
    <g id="Page-1" stroke="none" stroke-width="1" fill="none" fill-rule="evenodd">
        <polygon id="arrow-bottom" fill="#B21023" points="13.472 -0.00011 7.22 6.43589 0.968 -0.00011 0.966 -0.00011 0 0.93989 7.22 8.37389 14.44 0.93989 13.474 -0.00011"></polygon>
    </g>
</svg>