<?xml version="1.0" encoding="UTF-8"?>
<svg width="38px" height="38px" viewBox="0 0 38 38" version="1.1" xmlns="http://www.w3.org/2000/svg" xmlns:xlink="http://www.w3.org/1999/xlink">
    <!-- Generator: Sketch 42 (36781) - http://www.bohemiancoding.com/sketch -->
    <title>phone</title>
    <desc>Created with Sketch.</desc>
    <defs>
        <polygon id="path-1" points="0 37.9997 0 0.615 37.5 0.615 37.5 37.9997 -4.36591274e-15 37.9997"></polygon>
    </defs>
    <g id="Page-1" stroke="none" stroke-width="1" fill="none" fill-rule="evenodd">
        <g id="phone" transform="translate(0.000000, -1.000000)">
            <g id="Group-3" transform="translate(0.000000, 0.384800)">
                <mask id="mask-2" fill="white">
                    <use xlink:href="#path-1"></use>
                </mask>
                <g id="Clip-2"></g>
                <path d="M35.9498,33.7487 L34.9008,34.7797 C34.4068,35.2577 33.5548,35.9277 32.3078,36.4147 C31.6048,36.6837 30.9188,36.8597 30.2048,36.9417 C30.1648,36.9487 30.0068,36.9587 29.7478,36.9587 C27.6418,36.9587 20.0628,36.2487 10.9488,27.1357 C1.9738,18.1597 0.5418,12.9527 1.1488,7.8947 C1.2268,7.2057 1.3998,6.5157 1.6728,5.7957 C2.1668,4.5357 2.8368,3.6867 3.3098,3.1957 L4.3428,2.1477 C4.6608,1.8297 5.1118,1.6467 5.5758,1.6467 C6.0008,1.6467 6.3788,1.7957 6.6468,2.0647 L12.5678,7.9817 C13.1788,8.5957 13.1408,9.6297 12.4878,10.2867 L8.7898,13.9807 L8.7178,14.0577 L8.9228,14.4017 C9.1288,14.7507 9.3468,15.1427 9.5828,15.5697 C10.6698,17.5297 12.1588,20.2167 15.0188,23.0757 C17.8878,25.9407 20.5598,27.4207 22.5138,28.5047 C22.9588,28.7497 23.3458,28.9657 23.6878,29.1717 L24.0368,29.3767 L27.8038,25.6097 C28.1258,25.2907 28.5698,25.1117 29.0378,25.1117 C29.4588,25.1117 29.8438,25.2577 30.1128,25.5297 L36.0258,31.4437 C36.6358,32.0567 36.5988,33.0917 35.9498,33.7487 M36.7598,30.7107 L30.8418,24.7907 C30.3808,24.3327 29.7408,24.0777 29.0338,24.0777 C28.2948,24.0777 27.5778,24.3697 27.0708,24.8737 L23.8738,28.0737 L23.0088,27.5927 C21.1068,26.5377 18.5048,25.0917 15.7518,22.3387 C12.9918,19.5827 11.5468,16.9737 10.4878,15.0627 L10.0168,14.2237 L13.2178,11.0197 C14.2788,9.9577 14.3148,8.2637 13.3008,7.2457 L7.3798,1.3287 C6.9188,0.8707 6.2798,0.6147 5.5718,0.6147 C4.8328,0.6147 4.1168,0.9037 3.6088,1.4117 L2.1568,2.8737 L2.0198,3.0957 C1.4798,3.7887 1.0388,4.5717 0.7068,5.4207 C0.3988,6.2297 0.2058,6.9997 0.1168,7.7727 C-0.6462,14.1147 2.2798,19.9377 10.2128,27.8687 C19.6178,37.2707 27.4748,37.9997 29.6618,37.9997 C30.0358,37.9997 30.2628,37.9807 30.3248,37.9777 C31.1348,37.8777 31.9028,37.6817 32.6818,37.3797 C33.5208,37.0517 34.3018,36.6147 34.9948,36.0737 L35.3228,35.8117 L36.6858,34.4777 C37.7408,33.4167 37.7768,31.7287 36.7598,30.7107" id="Fill-1" fill="#473F3F" mask="url(#mask-2)"></path>
            </g>
            <polygon id="Fill-4" fill="#473F3F" points="16.9752 13.8489 24.2982 13.8489 24.2982 21.1719 24.9712 21.1719 24.9712 13.8489 32.2942 13.8489 32.2942 13.1759 24.9712 13.1759 24.9712 5.8519 24.2982 5.8519 24.2982 13.1759 16.9752 13.1759"></polygon>
        </g>
    </g>
</svg>