<?xml version="1.0" encoding="UTF-8"?>
<svg width="57px" height="40px" viewBox="0 0 57 40" version="1.1" xmlns="http://www.w3.org/2000/svg" xmlns:xlink="http://www.w3.org/1999/xlink">
    <!-- Generator: Sketch 42 (36781) - http://www.bohemiancoding.com/sketch -->
    <title>piso</title>
    <desc>Created with Sketch.</desc>
    <defs></defs>
    <g id="Page-1" stroke="none" stroke-width="1" fill="none" fill-rule="evenodd">
        <g id="piso" fill="#B21023">
            <polygon id="Fill-1" points="10.3329 36.4939 -0.0001 36.4939 -0.0001 39.3379 13.1759 39.3379 13.1759 14.0469 15.1669 16.0379 15.1669 39.6219 18.0119 39.6219 18.0119 18.8809 22.1819 23.0529 22.1819 39.3379 35.9279 39.3379 35.9279 30.9199 40.3119 26.5359 40.3119 39.6219 43.1559 39.6219 43.1559 23.6919 44.9329 21.9149 44.9329 39.3379 56.1199 39.3379 56.1199 36.4939 47.7779 36.4939 47.7779 15.0489 33.0839 29.7429 33.0839 36.4939 25.0259 36.4939 25.0259 21.8739 10.3329 7.1809"></polygon>
            <polygon id="Fill-2" points="28.9845 -0.0002 17.9545 11.0298 19.9645 13.0418 28.9845 4.0228 41.9125 16.9518 43.9245 14.9418"></polygon>
            <polygon id="Fill-3" points="25.678 13.5803 28.193 13.5803 28.193 11.0653 25.678 11.0653"></polygon>
            <polygon id="Fill-4" points="29.857 13.5803 32.372 13.5803 32.372 11.0653 29.857 11.0653"></polygon>
            <polygon id="Fill-5" points="25.678 17.5373 28.193 17.5373 28.193 15.0223 25.678 15.0223"></polygon>
            <polygon id="Fill-6" points="29.858 17.5373 32.373 17.5373 32.373 15.0223 29.858 15.0223"></polygon>
        </g>
    </g>
</svg>